<?xml version="1.0"?>
<!DOCTYPE svg PUBLIC "-//W3C//DTD SVG 1.1//EN" "http://www.w3.org/Graphics/SVG/1.1/DTD/svg11.dtd">
<svg width="306.0mm" height="216.0mm" viewBox="0 0 306.0 216.0" xmlns="http://www.w3.org/2000/svg" version="1.1">
<g id="test" transform="translate(3.000000,213.000000) scale(1,-1)">
<path id="test_f0000"  d="M 300.0 210.0 L 300.0 210.0 L 0.0 210.0 L 0.0 210.0 L 300.0 210.0 Z " stroke="#191919" stroke-width="0.35 px" style="stroke-width:0.35;stroke-miterlimit:4;stroke-dasharray:none;fill:#cccccc;fill-opacity:1.0;fill-rule: evenodd"/>
<path id="test_f0001"  d="M 300.0 0.0 L 300.0 0.0 L 300.0 210.0 L 300.0 210.0 L 300.0 0.0 Z " stroke="#191919" stroke-width="0.35 px" style="stroke-width:0.35;stroke-miterlimit:4;stroke-dasharray:none;fill:#cccccc;fill-opacity:1.0;fill-rule: evenodd"/>
<path id="test_f0002"  d="M 0.0 210.0 L 0.0 210.0 L 0.0 0.0 L 0.0 0.0 L 0.0 210.0 Z " stroke="#191919" stroke-width="0.35 px" style="stroke-width:0.35;stroke-miterlimit:4;stroke-dasharray:none;fill:#cccccc;fill-opacity:1.0;fill-rule: evenodd"/>
<path id="test_f0003"  d="M 300.0 210.0 L 0.0 210.0 L 0.0 0.0 L 300.0 0.0 L 300.0 210.0 Z M 268.38333333333327 64.86666666666667 L 268.38333333333327 45.13333333333334 L 272.5166666666666 45.13333333333334 L 272.5166666666666 64.86666666666667 L 268.38333333333327 64.86666666666667 Z M 268.38333333333327 114.86666666666667 L 268.38333333333327 95.13333333333334 L 272.5166666666666 95.13333333333334 L 272.5166666666666 114.86666666666667 L 268.38333333333327 114.86666666666667 Z M 180.2536291247462 85.47850228752539 L 180.2536291247462 125.47850228752539 L 120.2536291247462 125.47850228752539 L 120.2536291247462 85.47850228752539 L 180.2536291247462 85.47850228752539 Z M 268.38333333333327 164.8666666666667 L 268.38333333333327 145.13333333333335 L 272.5166666666666 145.13333333333335 L 272.5166666666666 164.8666666666667 L 268.38333333333327 164.8666666666667 Z M 71.02916666666667 175.06666666666666 L 51.29583333333334 175.06666666666666 L 51.29583333333334 170.93333333333334 L 71.02916666666667 170.93333333333334 L 71.02916666666667 175.06666666666666 Z M 130.25416666666666 175.06666666666666 L 110.52083333333334 175.06666666666666 L 110.52083333333334 170.93333333333334 L 130.25416666666666 170.93333333333334 L 130.25416666666666 175.06666666666666 Z M 248.70416666666665 175.06666666666666 L 228.9708333333333 175.06666666666666 L 228.9708333333333 170.93333333333334 L 248.70416666666665 170.93333333333334 L 248.70416666666665 175.06666666666666 Z M 189.47916666666669 175.06666666666666 L 169.74583333333334 175.06666666666666 L 169.74583333333334 170.93333333333334 L 189.47916666666669 170.93333333333334 L 189.47916666666669 175.06666666666666 Z M 27.483333333333274 164.8666666666667 L 27.483333333333277 145.13333333333335 L 31.61666666666661 145.13333333333335 L 31.616666666666607 164.8666666666667 L 27.483333333333274 164.8666666666667 Z M 27.483333333333285 114.86666666666667 L 27.483333333333288 95.13333333333334 L 31.61666666666662 95.13333333333334 L 31.616666666666617 114.86666666666667 L 27.483333333333285 114.86666666666667 Z M 27.483333333333295 64.86666666666667 L 27.4833333333333 45.13333333333334 L 31.61666666666663 45.13333333333334 L 31.616666666666628 64.86666666666667 L 27.483333333333295 64.86666666666667 Z M 130.25416666666666 39.06666666666667 L 110.52083333333334 39.06666666666667 L 110.52083333333334 34.93333333333334 L 130.25416666666666 34.93333333333334 L 130.25416666666666 39.06666666666667 Z M 71.02916666666667 39.06666666666668 L 51.29583333333334 39.06666666666668 L 51.29583333333334 34.93333333333334 L 71.02916666666667 34.93333333333334 L 71.02916666666667 39.06666666666668 Z M 248.70416666666665 39.06666666666666 L 228.9708333333333 39.06666666666666 L 228.9708333333333 34.93333333333332 L 248.70416666666665 34.93333333333332 L 248.70416666666665 39.06666666666666 Z M 189.47916666666669 39.06666666666667 L 169.74583333333334 39.06666666666667 L 169.74583333333334 34.93333333333334 L 189.47916666666669 34.93333333333334 L 189.47916666666669 39.06666666666667 Z " stroke="#191919" stroke-width="0.35 px" style="stroke-width:0.35;stroke-miterlimit:4;stroke-dasharray:none;fill:#cccccc;fill-opacity:1.0;fill-rule: evenodd"/>
<path id="test_f0005"  d="M 0.0 0.0 L 0.0 0.0 L 300.0 0.0 L 300.0 0.0 L 0.0 0.0 Z " stroke="#191919" stroke-width="0.35 px" style="stroke-width:0.35;stroke-miterlimit:4;stroke-dasharray:none;fill:#cccccc;fill-opacity:1.0;fill-rule: evenodd"/>
<path id="test_f0006"  d="M 268.38333333333327 64.86666666666667 L 268.38333333333327 64.86666666666667 L 272.5166666666666 64.86666666666667 L 272.5166666666666 64.86666666666667 L 268.38333333333327 64.86666666666667 Z " stroke="#191919" stroke-width="0.35 px" style="stroke-width:0.35;stroke-miterlimit:4;stroke-dasharray:none;fill:#cccccc;fill-opacity:1.0;fill-rule: evenodd"/>
<path id="test_f0007"  d="M 268.38333333333327 45.13333333333334 L 268.38333333333327 64.86666666666667 L 268.38333333333327 64.86666666666667 L 268.38333333333327 45.13333333333334 L 268.38333333333327 45.13333333333334 Z " stroke="#191919" stroke-width="0.35 px" style="stroke-width:0.35;stroke-miterlimit:4;stroke-dasharray:none;fill:#cccccc;fill-opacity:1.0;fill-rule: evenodd"/>
<path id="test_f0008"  d="M 272.5166666666666 45.13333333333334 L 268.38333333333327 45.13333333333334 L 268.38333333333327 45.13333333333334 L 272.5166666666666 45.13333333333334 L 272.5166666666666 45.13333333333334 Z " stroke="#191919" stroke-width="0.35 px" style="stroke-width:0.35;stroke-miterlimit:4;stroke-dasharray:none;fill:#cccccc;fill-opacity:1.0;fill-rule: evenodd"/>
<path id="test_f0009"  d="M 272.5166666666666 64.86666666666667 L 272.5166666666666 64.86666666666667 L 272.5166666666666 45.13333333333334 L 272.5166666666666 45.13333333333334 L 272.5166666666666 64.86666666666667 Z " stroke="#191919" stroke-width="0.35 px" style="stroke-width:0.35;stroke-miterlimit:4;stroke-dasharray:none;fill:#cccccc;fill-opacity:1.0;fill-rule: evenodd"/>
<path id="test_f0010"  d="M 268.38333333333327 114.86666666666667 L 268.38333333333327 114.86666666666667 L 272.5166666666666 114.86666666666667 L 272.5166666666666 114.86666666666667 L 268.38333333333327 114.86666666666667 Z " stroke="#191919" stroke-width="0.35 px" style="stroke-width:0.35;stroke-miterlimit:4;stroke-dasharray:none;fill:#cccccc;fill-opacity:1.0;fill-rule: evenodd"/>
<path id="test_f0011"  d="M 268.38333333333327 95.13333333333335 L 268.38333333333327 114.86666666666667 L 268.38333333333327 114.86666666666667 L 268.38333333333327 95.13333333333334 L 268.38333333333327 95.13333333333335 Z " stroke="#191919" stroke-width="0.35 px" style="stroke-width:0.35;stroke-miterlimit:4;stroke-dasharray:none;fill:#cccccc;fill-opacity:1.0;fill-rule: evenodd"/>
<path id="test_f0012"  d="M 272.5166666666666 95.13333333333335 L 268.38333333333327 95.13333333333335 L 268.38333333333327 95.13333333333335 L 272.5166666666666 95.13333333333334 L 272.5166666666666 95.13333333333335 Z " stroke="#191919" stroke-width="0.35 px" style="stroke-width:0.35;stroke-miterlimit:4;stroke-dasharray:none;fill:#cccccc;fill-opacity:1.0;fill-rule: evenodd"/>
<path id="test_f0013"  d="M 272.5166666666666 114.86666666666667 L 272.5166666666666 114.86666666666667 L 272.5166666666666 95.13333333333334 L 272.5166666666666 95.13333333333335 L 272.5166666666666 114.86666666666667 Z " stroke="#191919" stroke-width="0.35 px" style="stroke-width:0.35;stroke-miterlimit:4;stroke-dasharray:none;fill:#cccccc;fill-opacity:1.0;fill-rule: evenodd"/>
<path id="test_f0014"  d="M 180.2536291247462 85.47850228752539 L 180.2536291247462 85.47850228752539 L 120.2536291247462 85.47850228752539 L 120.2536291247462 85.47850228752539 L 180.2536291247462 85.47850228752539 Z " stroke="#191919" stroke-width="0.35 px" style="stroke-width:0.35;stroke-miterlimit:4;stroke-dasharray:none;fill:#cccccc;fill-opacity:1.0;fill-rule: evenodd"/>
<path id="test_f0015"  d="M 180.2536291247462 125.47850228752539 L 180.2536291247462 125.47850228752539 L 180.2536291247462 85.47850228752539 L 180.2536291247462 85.47850228752539 L 180.2536291247462 125.47850228752539 Z " stroke="#191919" stroke-width="0.35 px" style="stroke-width:0.35;stroke-miterlimit:4;stroke-dasharray:none;fill:#cccccc;fill-opacity:1.0;fill-rule: evenodd"/>
<path id="test_f0016"  d="M 120.2536291247462 85.47850228752539 L 120.2536291247462 85.47850228752539 L 120.2536291247462 125.47850228752539 L 120.2536291247462 125.47850228752539 L 120.2536291247462 85.47850228752539 Z " stroke="#191919" stroke-width="0.35 px" style="stroke-width:0.35;stroke-miterlimit:4;stroke-dasharray:none;fill:#cccccc;fill-opacity:1.0;fill-rule: evenodd"/>
<path id="test_f0017"  d="M 120.2536291247462 125.47850228752539 L 120.2536291247462 125.47850228752539 L 180.2536291247462 125.47850228752539 L 180.2536291247462 125.47850228752539 L 120.2536291247462 125.47850228752539 Z " stroke="#191919" stroke-width="0.35 px" style="stroke-width:0.35;stroke-miterlimit:4;stroke-dasharray:none;fill:#cccccc;fill-opacity:1.0;fill-rule: evenodd"/>
<path id="test_f0018"  d="M 268.38333333333327 164.8666666666667 L 268.38333333333327 164.8666666666667 L 272.5166666666666 164.8666666666667 L 272.5166666666666 164.8666666666667 L 268.38333333333327 164.8666666666667 Z " stroke="#191919" stroke-width="0.35 px" style="stroke-width:0.35;stroke-miterlimit:4;stroke-dasharray:none;fill:#cccccc;fill-opacity:1.0;fill-rule: evenodd"/>
<path id="test_f0019"  d="M 268.38333333333327 145.13333333333335 L 268.38333333333327 164.8666666666667 L 268.38333333333327 164.8666666666667 L 268.38333333333327 145.13333333333338 L 268.38333333333327 145.13333333333335 Z " stroke="#191919" stroke-width="0.35 px" style="stroke-width:0.35;stroke-miterlimit:4;stroke-dasharray:none;fill:#cccccc;fill-opacity:1.0;fill-rule: evenodd"/>
<path id="test_f0020"  d="M 272.5166666666666 145.13333333333335 L 268.38333333333327 145.13333333333335 L 268.38333333333327 145.13333333333335 L 272.5166666666666 145.13333333333335 L 272.5166666666666 145.13333333333335 Z " stroke="#191919" stroke-width="0.35 px" style="stroke-width:0.35;stroke-miterlimit:4;stroke-dasharray:none;fill:#cccccc;fill-opacity:1.0;fill-rule: evenodd"/>
<path id="test_f0021"  d="M 272.5166666666666 164.8666666666667 L 272.5166666666666 164.8666666666667 L 272.5166666666666 145.13333333333338 L 272.5166666666666 145.13333333333335 L 272.5166666666666 164.8666666666667 Z " stroke="#191919" stroke-width="0.35 px" style="stroke-width:0.35;stroke-miterlimit:4;stroke-dasharray:none;fill:#cccccc;fill-opacity:1.0;fill-rule: evenodd"/>
<path id="test_f0022"  d="M 71.02916666666667 175.06666666666666 L 71.02916666666667 175.06666666666666 L 71.02916666666667 170.93333333333334 L 71.02916666666667 170.93333333333334 L 71.02916666666667 175.06666666666666 Z " stroke="#191919" stroke-width="0.35 px" style="stroke-width:0.35;stroke-miterlimit:4;stroke-dasharray:none;fill:#cccccc;fill-opacity:1.0;fill-rule: evenodd"/>
<path id="test_f0023"  d="M 51.29583333333334 175.06666666666666 L 71.02916666666667 175.06666666666666 L 71.02916666666667 175.06666666666666 L 51.295833333333334 175.06666666666666 L 51.29583333333334 175.06666666666666 Z " stroke="#191919" stroke-width="0.35 px" style="stroke-width:0.35;stroke-miterlimit:4;stroke-dasharray:none;fill:#cccccc;fill-opacity:1.0;fill-rule: evenodd"/>
<path id="test_f0024"  d="M 51.29583333333334 170.93333333333334 L 51.29583333333334 175.06666666666666 L 51.29583333333334 175.06666666666666 L 51.29583333333334 170.93333333333334 L 51.29583333333334 170.93333333333334 Z " stroke="#191919" stroke-width="0.35 px" style="stroke-width:0.35;stroke-miterlimit:4;stroke-dasharray:none;fill:#cccccc;fill-opacity:1.0;fill-rule: evenodd"/>
<path id="test_f0025"  d="M 71.02916666666667 170.93333333333334 L 71.02916666666667 170.93333333333334 L 51.295833333333334 170.93333333333334 L 51.29583333333334 170.93333333333334 L 71.02916666666667 170.93333333333334 Z " stroke="#191919" stroke-width="0.35 px" style="stroke-width:0.35;stroke-miterlimit:4;stroke-dasharray:none;fill:#cccccc;fill-opacity:1.0;fill-rule: evenodd"/>
<path id="test_f0026"  d="M 130.25416666666666 175.06666666666666 L 130.25416666666666 175.06666666666666 L 130.25416666666666 170.93333333333334 L 130.25416666666666 170.93333333333334 L 130.25416666666666 175.06666666666666 Z " stroke="#191919" stroke-width="0.35 px" style="stroke-width:0.35;stroke-miterlimit:4;stroke-dasharray:none;fill:#cccccc;fill-opacity:1.0;fill-rule: evenodd"/>
<path id="test_f0027"  d="M 110.52083333333334 175.06666666666666 L 130.25416666666666 175.06666666666666 L 130.25416666666666 175.06666666666666 L 110.52083333333333 175.06666666666666 L 110.52083333333334 175.06666666666666 Z " stroke="#191919" stroke-width="0.35 px" style="stroke-width:0.35;stroke-miterlimit:4;stroke-dasharray:none;fill:#cccccc;fill-opacity:1.0;fill-rule: evenodd"/>
<path id="test_f0028"  d="M 110.52083333333334 170.93333333333334 L 110.52083333333334 175.06666666666666 L 110.52083333333334 175.06666666666666 L 110.52083333333334 170.93333333333334 L 110.52083333333334 170.93333333333334 Z " stroke="#191919" stroke-width="0.35 px" style="stroke-width:0.35;stroke-miterlimit:4;stroke-dasharray:none;fill:#cccccc;fill-opacity:1.0;fill-rule: evenodd"/>
<path id="test_f0029"  d="M 130.25416666666666 170.93333333333334 L 130.25416666666666 170.93333333333334 L 110.52083333333333 170.93333333333334 L 110.52083333333334 170.93333333333334 L 130.25416666666666 170.93333333333334 Z " stroke="#191919" stroke-width="0.35 px" style="stroke-width:0.35;stroke-miterlimit:4;stroke-dasharray:none;fill:#cccccc;fill-opacity:1.0;fill-rule: evenodd"/>
<path id="test_f0030"  d="M 248.70416666666665 175.06666666666666 L 248.70416666666665 175.06666666666666 L 248.70416666666665 170.93333333333334 L 248.70416666666665 170.93333333333334 L 248.70416666666665 175.06666666666666 Z " stroke="#191919" stroke-width="0.35 px" style="stroke-width:0.35;stroke-miterlimit:4;stroke-dasharray:none;fill:#cccccc;fill-opacity:1.0;fill-rule: evenodd"/>
<path id="test_f0031"  d="M 228.9708333333333 175.06666666666666 L 248.70416666666665 175.06666666666666 L 248.70416666666665 175.06666666666666 L 228.9708333333333 175.06666666666666 L 228.9708333333333 175.06666666666666 Z " stroke="#191919" stroke-width="0.35 px" style="stroke-width:0.35;stroke-miterlimit:4;stroke-dasharray:none;fill:#cccccc;fill-opacity:1.0;fill-rule: evenodd"/>
<path id="test_f0032"  d="M 228.9708333333333 170.93333333333334 L 228.9708333333333 175.06666666666666 L 228.9708333333333 175.06666666666666 L 228.9708333333333 170.93333333333334 L 228.9708333333333 170.93333333333334 Z " stroke="#191919" stroke-width="0.35 px" style="stroke-width:0.35;stroke-miterlimit:4;stroke-dasharray:none;fill:#cccccc;fill-opacity:1.0;fill-rule: evenodd"/>
<path id="test_f0033"  d="M 248.70416666666665 170.93333333333334 L 248.70416666666665 170.93333333333334 L 228.9708333333333 170.93333333333334 L 228.9708333333333 170.93333333333334 L 248.70416666666665 170.93333333333334 Z " stroke="#191919" stroke-width="0.35 px" style="stroke-width:0.35;stroke-miterlimit:4;stroke-dasharray:none;fill:#cccccc;fill-opacity:1.0;fill-rule: evenodd"/>
<path id="test_f0034"  d="M 189.47916666666669 175.06666666666666 L 189.47916666666669 175.06666666666666 L 189.47916666666669 170.93333333333334 L 189.47916666666669 170.93333333333334 L 189.47916666666669 175.06666666666666 Z " stroke="#191919" stroke-width="0.35 px" style="stroke-width:0.35;stroke-miterlimit:4;stroke-dasharray:none;fill:#cccccc;fill-opacity:1.0;fill-rule: evenodd"/>
<path id="test_f0035"  d="M 169.74583333333334 175.06666666666666 L 189.47916666666669 175.06666666666666 L 189.47916666666669 175.06666666666666 L 169.74583333333334 175.06666666666666 L 169.74583333333334 175.06666666666666 Z " stroke="#191919" stroke-width="0.35 px" style="stroke-width:0.35;stroke-miterlimit:4;stroke-dasharray:none;fill:#cccccc;fill-opacity:1.0;fill-rule: evenodd"/>
<path id="test_f0036"  d="M 169.74583333333334 170.93333333333334 L 169.74583333333334 175.06666666666666 L 169.74583333333334 175.06666666666666 L 169.74583333333334 170.93333333333334 L 169.74583333333334 170.93333333333334 Z " stroke="#191919" stroke-width="0.35 px" style="stroke-width:0.35;stroke-miterlimit:4;stroke-dasharray:none;fill:#cccccc;fill-opacity:1.0;fill-rule: evenodd"/>
<path id="test_f0037"  d="M 189.47916666666669 170.93333333333334 L 189.47916666666669 170.93333333333334 L 169.74583333333334 170.93333333333334 L 169.74583333333334 170.93333333333334 L 189.47916666666669 170.93333333333334 Z " stroke="#191919" stroke-width="0.35 px" style="stroke-width:0.35;stroke-miterlimit:4;stroke-dasharray:none;fill:#cccccc;fill-opacity:1.0;fill-rule: evenodd"/>
<path id="test_f0038"  d="M 27.483333333333274 164.8666666666667 L 27.483333333333274 164.8666666666667 L 31.616666666666607 164.8666666666667 L 31.61666666666661 164.8666666666667 L 27.483333333333274 164.8666666666667 Z " stroke="#191919" stroke-width="0.35 px" style="stroke-width:0.35;stroke-miterlimit:4;stroke-dasharray:none;fill:#cccccc;fill-opacity:1.0;fill-rule: evenodd"/>
<path id="test_f0039"  d="M 27.483333333333277 145.13333333333335 L 27.483333333333274 164.8666666666667 L 27.48333333333327 164.8666666666667 L 27.483333333333277 145.13333333333338 L 27.483333333333277 145.13333333333335 Z " stroke="#191919" stroke-width="0.35 px" style="stroke-width:0.35;stroke-miterlimit:4;stroke-dasharray:none;fill:#cccccc;fill-opacity:1.0;fill-rule: evenodd"/>
<path id="test_f0040"  d="M 31.616666666666614 145.13333333333335 L 27.483333333333277 145.13333333333335 L 27.483333333333277 145.13333333333335 L 31.61666666666661 145.13333333333335 L 31.616666666666614 145.13333333333335 Z " stroke="#191919" stroke-width="0.35 px" style="stroke-width:0.35;stroke-miterlimit:4;stroke-dasharray:none;fill:#cccccc;fill-opacity:1.0;fill-rule: evenodd"/>
<path id="test_f0041"  d="M 31.616666666666607 164.8666666666667 L 31.61666666666661 164.8666666666667 L 31.616666666666614 145.13333333333338 L 31.61666666666661 145.13333333333335 L 31.616666666666607 164.8666666666667 Z " stroke="#191919" stroke-width="0.35 px" style="stroke-width:0.35;stroke-miterlimit:4;stroke-dasharray:none;fill:#cccccc;fill-opacity:1.0;fill-rule: evenodd"/>
<path id="test_f0042"  d="M 27.483333333333285 114.86666666666667 L 27.483333333333285 114.86666666666667 L 31.616666666666617 114.86666666666667 L 31.616666666666617 114.86666666666667 L 27.483333333333285 114.86666666666667 Z " stroke="#191919" stroke-width="0.35 px" style="stroke-width:0.35;stroke-miterlimit:4;stroke-dasharray:none;fill:#cccccc;fill-opacity:1.0;fill-rule: evenodd"/>
<path id="test_f0043"  d="M 27.48333333333329 95.13333333333335 L 27.483333333333285 114.86666666666667 L 27.483333333333285 114.86666666666667 L 27.483333333333288 95.13333333333334 L 27.48333333333329 95.13333333333335 Z " stroke="#191919" stroke-width="0.35 px" style="stroke-width:0.35;stroke-miterlimit:4;stroke-dasharray:none;fill:#cccccc;fill-opacity:1.0;fill-rule: evenodd"/>
<path id="test_f0044"  d="M 31.616666666666625 95.13333333333335 L 27.48333333333329 95.13333333333335 L 27.48333333333329 95.13333333333335 L 31.61666666666662 95.13333333333334 L 31.616666666666625 95.13333333333335 Z " stroke="#191919" stroke-width="0.35 px" style="stroke-width:0.35;stroke-miterlimit:4;stroke-dasharray:none;fill:#cccccc;fill-opacity:1.0;fill-rule: evenodd"/>
<path id="test_f0045"  d="M 31.616666666666617 114.86666666666667 L 31.616666666666617 114.86666666666667 L 31.61666666666662 95.13333333333334 L 31.616666666666625 95.13333333333335 L 31.616666666666617 114.86666666666667 Z " stroke="#191919" stroke-width="0.35 px" style="stroke-width:0.35;stroke-miterlimit:4;stroke-dasharray:none;fill:#cccccc;fill-opacity:1.0;fill-rule: evenodd"/>
<path id="test_f0046"  d="M 27.483333333333295 64.86666666666667 L 27.483333333333295 64.86666666666667 L 31.616666666666628 64.86666666666667 L 31.61666666666663 64.86666666666667 L 27.483333333333295 64.86666666666667 Z " stroke="#191919" stroke-width="0.35 px" style="stroke-width:0.35;stroke-miterlimit:4;stroke-dasharray:none;fill:#cccccc;fill-opacity:1.0;fill-rule: evenodd"/>
<path id="test_f0047"  d="M 27.4833333333333 45.13333333333334 L 27.483333333333295 64.86666666666667 L 27.48333333333329 64.86666666666667 L 27.4833333333333 45.13333333333334 L 27.4833333333333 45.13333333333334 Z " stroke="#191919" stroke-width="0.35 px" style="stroke-width:0.35;stroke-miterlimit:4;stroke-dasharray:none;fill:#cccccc;fill-opacity:1.0;fill-rule: evenodd"/>
<path id="test_f0048"  d="M 31.616666666666635 45.13333333333334 L 27.4833333333333 45.13333333333334 L 27.4833333333333 45.13333333333334 L 31.61666666666663 45.13333333333334 L 31.616666666666635 45.13333333333334 Z " stroke="#191919" stroke-width="0.35 px" style="stroke-width:0.35;stroke-miterlimit:4;stroke-dasharray:none;fill:#cccccc;fill-opacity:1.0;fill-rule: evenodd"/>
<path id="test_f0049"  d="M 31.616666666666628 64.86666666666667 L 31.61666666666663 64.86666666666667 L 31.616666666666635 45.13333333333334 L 31.61666666666663 45.13333333333334 L 31.616666666666628 64.86666666666667 Z " stroke="#191919" stroke-width="0.35 px" style="stroke-width:0.35;stroke-miterlimit:4;stroke-dasharray:none;fill:#cccccc;fill-opacity:1.0;fill-rule: evenodd"/>
<path id="test_f0050"  d="M 130.25416666666666 39.06666666666667 L 130.25416666666666 39.06666666666667 L 130.25416666666666 34.93333333333334 L 130.25416666666666 34.93333333333333 L 130.25416666666666 39.06666666666667 Z " stroke="#191919" stroke-width="0.35 px" style="stroke-width:0.35;stroke-miterlimit:4;stroke-dasharray:none;fill:#cccccc;fill-opacity:1.0;fill-rule: evenodd"/>
<path id="test_f0051"  d="M 110.52083333333334 39.06666666666667 L 130.25416666666666 39.06666666666667 L 130.25416666666666 39.06666666666667 L 110.52083333333333 39.06666666666667 L 110.52083333333334 39.06666666666667 Z " stroke="#191919" stroke-width="0.35 px" style="stroke-width:0.35;stroke-miterlimit:4;stroke-dasharray:none;fill:#cccccc;fill-opacity:1.0;fill-rule: evenodd"/>
<path id="test_f0052"  d="M 110.52083333333334 34.93333333333333 L 110.52083333333334 39.06666666666667 L 110.52083333333334 39.06666666666667 L 110.52083333333334 34.93333333333334 L 110.52083333333334 34.93333333333333 Z " stroke="#191919" stroke-width="0.35 px" style="stroke-width:0.35;stroke-miterlimit:4;stroke-dasharray:none;fill:#cccccc;fill-opacity:1.0;fill-rule: evenodd"/>
<path id="test_f0053"  d="M 130.25416666666666 34.93333333333334 L 130.25416666666666 34.93333333333333 L 110.52083333333333 34.93333333333333 L 110.52083333333334 34.93333333333333 L 130.25416666666666 34.93333333333334 Z " stroke="#191919" stroke-width="0.35 px" style="stroke-width:0.35;stroke-miterlimit:4;stroke-dasharray:none;fill:#cccccc;fill-opacity:1.0;fill-rule: evenodd"/>
<path id="test_f0054"  d="M 71.02916666666667 39.06666666666668 L 71.02916666666667 39.06666666666668 L 71.02916666666667 34.933333333333344 L 71.02916666666667 34.93333333333334 L 71.02916666666667 39.06666666666668 Z " stroke="#191919" stroke-width="0.35 px" style="stroke-width:0.35;stroke-miterlimit:4;stroke-dasharray:none;fill:#cccccc;fill-opacity:1.0;fill-rule: evenodd"/>
<path id="test_f0055"  d="M 51.29583333333334 39.06666666666668 L 71.02916666666667 39.06666666666668 L 71.02916666666667 39.06666666666668 L 51.295833333333334 39.06666666666668 L 51.29583333333334 39.06666666666668 Z " stroke="#191919" stroke-width="0.35 px" style="stroke-width:0.35;stroke-miterlimit:4;stroke-dasharray:none;fill:#cccccc;fill-opacity:1.0;fill-rule: evenodd"/>
<path id="test_f0056"  d="M 51.29583333333334 34.93333333333334 L 51.29583333333334 39.06666666666668 L 51.29583333333334 39.06666666666668 L 51.29583333333334 34.933333333333344 L 51.29583333333334 34.93333333333334 Z " stroke="#191919" stroke-width="0.35 px" style="stroke-width:0.35;stroke-miterlimit:4;stroke-dasharray:none;fill:#cccccc;fill-opacity:1.0;fill-rule: evenodd"/>
<path id="test_f0057"  d="M 71.02916666666667 34.93333333333334 L 71.02916666666667 34.93333333333334 L 51.295833333333334 34.93333333333334 L 51.29583333333334 34.93333333333334 L 71.02916666666667 34.93333333333334 Z " stroke="#191919" stroke-width="0.35 px" style="stroke-width:0.35;stroke-miterlimit:4;stroke-dasharray:none;fill:#cccccc;fill-opacity:1.0;fill-rule: evenodd"/>
<path id="test_f0058"  d="M 248.70416666666665 39.06666666666666 L 248.70416666666665 39.06666666666666 L 248.70416666666665 34.93333333333333 L 248.70416666666665 34.93333333333332 L 248.70416666666665 39.06666666666666 Z " stroke="#191919" stroke-width="0.35 px" style="stroke-width:0.35;stroke-miterlimit:4;stroke-dasharray:none;fill:#cccccc;fill-opacity:1.0;fill-rule: evenodd"/>
<path id="test_f0059"  d="M 228.9708333333333 39.06666666666666 L 248.70416666666665 39.06666666666666 L 248.70416666666665 39.06666666666666 L 228.9708333333333 39.06666666666666 L 228.9708333333333 39.06666666666666 Z " stroke="#191919" stroke-width="0.35 px" style="stroke-width:0.35;stroke-miterlimit:4;stroke-dasharray:none;fill:#cccccc;fill-opacity:1.0;fill-rule: evenodd"/>
<path id="test_f0060"  d="M 228.9708333333333 34.93333333333332 L 228.9708333333333 39.06666666666666 L 228.9708333333333 39.06666666666666 L 228.9708333333333 34.93333333333333 L 228.9708333333333 34.93333333333332 Z " stroke="#191919" stroke-width="0.35 px" style="stroke-width:0.35;stroke-miterlimit:4;stroke-dasharray:none;fill:#cccccc;fill-opacity:1.0;fill-rule: evenodd"/>
<path id="test_f0061"  d="M 248.70416666666665 34.93333333333332 L 248.70416666666665 34.93333333333332 L 228.9708333333333 34.93333333333332 L 228.9708333333333 34.93333333333332 L 248.70416666666665 34.93333333333332 Z " stroke="#191919" stroke-width="0.35 px" style="stroke-width:0.35;stroke-miterlimit:4;stroke-dasharray:none;fill:#cccccc;fill-opacity:1.0;fill-rule: evenodd"/>
<path id="test_f0062"  d="M 189.47916666666669 39.06666666666667 L 189.47916666666669 39.06666666666667 L 189.47916666666669 34.93333333333334 L 189.47916666666669 34.93333333333333 L 189.47916666666669 39.06666666666667 Z " stroke="#191919" stroke-width="0.35 px" style="stroke-width:0.35;stroke-miterlimit:4;stroke-dasharray:none;fill:#cccccc;fill-opacity:1.0;fill-rule: evenodd"/>
<path id="test_f0063"  d="M 169.74583333333334 39.06666666666667 L 189.47916666666669 39.06666666666667 L 189.47916666666669 39.06666666666667 L 169.74583333333334 39.06666666666667 L 169.74583333333334 39.06666666666667 Z " stroke="#191919" stroke-width="0.35 px" style="stroke-width:0.35;stroke-miterlimit:4;stroke-dasharray:none;fill:#cccccc;fill-opacity:1.0;fill-rule: evenodd"/>
<path id="test_f0064"  d="M 169.74583333333334 34.93333333333333 L 169.74583333333334 39.06666666666667 L 169.74583333333334 39.06666666666667 L 169.74583333333334 34.93333333333334 L 169.74583333333334 34.93333333333333 Z " stroke="#191919" stroke-width="0.35 px" style="stroke-width:0.35;stroke-miterlimit:4;stroke-dasharray:none;fill:#cccccc;fill-opacity:1.0;fill-rule: evenodd"/>
<path id="test_f0065"  d="M 189.47916666666669 34.93333333333334 L 189.47916666666669 34.93333333333333 L 169.74583333333334 34.93333333333333 L 169.74583333333334 34.93333333333333 L 189.47916666666669 34.93333333333334 Z " stroke="#191919" stroke-width="0.35 px" style="stroke-width:0.35;stroke-miterlimit:4;stroke-dasharray:none;fill:#cccccc;fill-opacity:1.0;fill-rule: evenodd"/>
<title>b'test'</title>
</g>
</svg>