<?xml version='1.0' encoding='UTF-8' standalone='no'?>
<!-- Created with Fritzing (http://www.fritzing.org/) -->
<svg xmlns="http://www.w3.org/2000/svg" viewBox="0 0 283.465 283.465" width="3.93701in" x="0in" y="0in"  baseProfile="tiny" xmlns:svg="http://www.w3.org/2000/svg" version="1.2" height="3.93701in">
 <g partID="57470">
  <g  id="board">
   <rect width="282.889" x="0.288" y="0.288"  id="boardoutline" fill-opacity="0.5" stroke="black" fill="none" stroke-width="0.5" height="282.889"/>
  </g>
 </g>
 <g partID="854407430">
  <g transform="translate(165.454,168.212)">
   <g  id="copper0">
    <circle cy="5.04"  id="connector0pin" stroke="black" r="2.088" cx="5.04" fill="black" stroke-width="2.16"/>
    <circle cy="12.24"  id="connector1pin" stroke="black" r="2.088" cx="5.04" fill="black" stroke-width="2.16"/>
    <circle cy="19.44"  id="connector2pin" stroke="black" r="2.088" cx="5.04" fill="black" stroke-width="2.16"/>
    <circle cy="26.64"  id="connector3pin" stroke="black" r="2.088" cx="5.04" fill="black" stroke-width="2.16"/>
    <circle cy="33.84"  id="connector4pin" stroke="black" r="2.088" cx="5.04" fill="black" stroke-width="2.16"/>
    <circle cy="41.04"  id="connector5pin" stroke="black" r="2.088" cx="5.04" fill="black" stroke-width="2.16"/>
    <circle cy="48.24"  id="connector6pin" stroke="black" r="2.088" cx="5.04" fill="black" stroke-width="2.16"/>
    <circle cy="55.44"  id="connector7pin" stroke="black" r="2.088" cx="5.04" fill="black" stroke-width="2.16"/>
    <circle cy="62.64"  id="connector8pin" stroke="black" r="2.088" cx="5.04" fill="black" stroke-width="2.16"/>
    <circle cy="69.84"  id="connector9pin" stroke="black" r="2.088" cx="5.04" fill="black" stroke-width="2.16"/>
   </g>
  </g>
 </g>
 <g partID="854407620">
  <g transform="translate(86.2536,168.212)">
   <g  id="copper0">
    <circle cy="5.04"  id="connector0pin" stroke="black" r="2.088" cx="5.04" fill="black" stroke-width="2.16"/>
    <circle cy="12.24"  id="connector1pin" stroke="black" r="2.088" cx="5.04" fill="black" stroke-width="2.16"/>
    <circle cy="19.44"  id="connector2pin" stroke="black" r="2.088" cx="5.04" fill="black" stroke-width="2.16"/>
    <circle cy="26.64"  id="connector3pin" stroke="black" r="2.088" cx="5.04" fill="black" stroke-width="2.16"/>
    <circle cy="33.84"  id="connector4pin" stroke="black" r="2.088" cx="5.04" fill="black" stroke-width="2.16"/>
    <circle cy="41.04"  id="connector5pin" stroke="black" r="2.088" cx="5.04" fill="black" stroke-width="2.16"/>
    <circle cy="48.24"  id="connector6pin" stroke="black" r="2.088" cx="5.04" fill="black" stroke-width="2.16"/>
    <circle cy="55.44"  id="connector7pin" stroke="black" r="2.088" cx="5.04" fill="black" stroke-width="2.16"/>
    <circle cy="62.64"  id="connector8pin" stroke="black" r="2.088" cx="5.04" fill="black" stroke-width="2.16"/>
    <circle cy="69.84"  id="connector9pin" stroke="black" r="2.088" cx="5.04" fill="black" stroke-width="2.16"/>
   </g>
  </g>
 </g>
 <g partID="854407600">
  <g transform="translate(93.4536,168.212)">
   <g  id="copper0">
    <circle cy="5.04"  id="connector0pin" stroke="black" r="2.088" cx="5.04" fill="black" stroke-width="2.16"/>
    <circle cy="12.24"  id="connector1pin" stroke="black" r="2.088" cx="5.04" fill="black" stroke-width="2.16"/>
    <circle cy="19.44"  id="connector2pin" stroke="black" r="2.088" cx="5.04" fill="black" stroke-width="2.16"/>
    <circle cy="26.64"  id="connector3pin" stroke="black" r="2.088" cx="5.04" fill="black" stroke-width="2.16"/>
    <circle cy="33.84"  id="connector4pin" stroke="black" r="2.088" cx="5.04" fill="black" stroke-width="2.16"/>
    <circle cy="41.04"  id="connector5pin" stroke="black" r="2.088" cx="5.04" fill="black" stroke-width="2.16"/>
    <circle cy="48.24"  id="connector6pin" stroke="black" r="2.088" cx="5.04" fill="black" stroke-width="2.16"/>
    <circle cy="55.44"  id="connector7pin" stroke="black" r="2.088" cx="5.04" fill="black" stroke-width="2.16"/>
    <circle cy="62.64"  id="connector8pin" stroke="black" r="2.088" cx="5.04" fill="black" stroke-width="2.16"/>
    <circle cy="69.84"  id="connector9pin" stroke="black" r="2.088" cx="5.04" fill="black" stroke-width="2.16"/>
   </g>
  </g>
 </g>
 <g partID="854407580">
  <g transform="translate(158.254,168.212)">
   <g  id="copper0">
    <circle cy="5.04"  id="connector0pin" stroke="black" r="2.088" cx="5.04" fill="black" stroke-width="2.16"/>
    <circle cy="12.24"  id="connector1pin" stroke="black" r="2.088" cx="5.04" fill="black" stroke-width="2.16"/>
    <circle cy="19.44"  id="connector2pin" stroke="black" r="2.088" cx="5.04" fill="black" stroke-width="2.16"/>
    <circle cy="26.64"  id="connector3pin" stroke="black" r="2.088" cx="5.04" fill="black" stroke-width="2.16"/>
    <circle cy="33.84"  id="connector4pin" stroke="black" r="2.088" cx="5.04" fill="black" stroke-width="2.16"/>
    <circle cy="41.04"  id="connector5pin" stroke="black" r="2.088" cx="5.04" fill="black" stroke-width="2.16"/>
    <circle cy="48.24"  id="connector6pin" stroke="black" r="2.088" cx="5.04" fill="black" stroke-width="2.16"/>
    <circle cy="55.44"  id="connector7pin" stroke="black" r="2.088" cx="5.04" fill="black" stroke-width="2.16"/>
    <circle cy="62.64"  id="connector8pin" stroke="black" r="2.088" cx="5.04" fill="black" stroke-width="2.16"/>
    <circle cy="69.84"  id="connector9pin" stroke="black" r="2.088" cx="5.04" fill="black" stroke-width="2.16"/>
   </g>
  </g>
 </g>
 <g partID="854151510">
  <g transform="translate(55.2936,203.852)">
   <g transform="matrix(-1,0,0,-1,0,0)">
    <g id="copper0">
     <rect width="4.32" x="12.24" y="6.84" id="square" stroke="black" height="4.32" fill="black" stroke-width="2.16"/>
     <circle cy="9" id="connector0pin" stroke="black" r="2.16" cx="14.4" fill="black" stroke-width="2.16"/>
     <circle cy="23.4" id="connector1pin" stroke="black" r="2.16" cx="14.4" fill="black" stroke-width="2.16"/>
    </g>
   </g>
  </g>
 </g>
 <g partID="854151730">
  <g transform="translate(136.654,74.6118)">
   <g  id="copper0">
    <circle cy="5.04"  id="connector0pin" stroke="black" r="2.088" cx="5.04" fill="black" stroke-width="2.16"/>
    <circle cy="12.24"  id="connector1pin" stroke="black" r="2.088" cx="5.04" fill="black" stroke-width="2.16"/>
    <circle cy="19.44"  id="connector2pin" stroke="black" r="2.088" cx="5.04" fill="black" stroke-width="2.16"/>
    <circle cy="26.64"  id="connector3pin" stroke="black" r="2.088" cx="5.04" fill="black" stroke-width="2.16"/>
   </g>
  </g>
 </g>
 <g partID="854151710">
  <g transform="translate(129.454,74.6118)">
   <g  id="copper0">
    <circle cy="5.04"  id="connector0pin" stroke="black" r="2.088" cx="5.04" fill="black" stroke-width="2.16"/>
    <circle cy="12.24"  id="connector1pin" stroke="black" r="2.088" cx="5.04" fill="black" stroke-width="2.16"/>
    <circle cy="19.44"  id="connector2pin" stroke="black" r="2.088" cx="5.04" fill="black" stroke-width="2.16"/>
    <circle cy="26.64"  id="connector3pin" stroke="black" r="2.088" cx="5.04" fill="black" stroke-width="2.16"/>
   </g>
  </g>
 </g>
 <g partID="854151670">
  <g transform="translate(122.254,74.6118)">
   <g  id="copper0">
    <circle cy="5.04"  id="connector0pin" stroke="black" r="2.088" cx="5.04" fill="black" stroke-width="2.16"/>
    <circle cy="12.24"  id="connector1pin" stroke="black" r="2.088" cx="5.04" fill="black" stroke-width="2.16"/>
    <circle cy="19.44"  id="connector2pin" stroke="black" r="2.088" cx="5.04" fill="black" stroke-width="2.16"/>
    <circle cy="26.64"  id="connector3pin" stroke="black" r="2.088" cx="5.04" fill="black" stroke-width="2.16"/>
   </g>
  </g>
 </g>
 <g partID="854151550">
  <g transform="translate(115.054,74.6118)">
   <g  id="copper0">
    <circle cy="5.04"  id="connector0pin" stroke="black" r="2.088" cx="5.04" fill="black" stroke-width="2.16"/>
    <circle cy="12.24"  id="connector1pin" stroke="black" r="2.088" cx="5.04" fill="black" stroke-width="2.16"/>
    <circle cy="19.44"  id="connector2pin" stroke="black" r="2.088" cx="5.04" fill="black" stroke-width="2.16"/>
    <circle cy="26.64"  id="connector3pin" stroke="black" r="2.088" cx="5.04" fill="black" stroke-width="2.16"/>
   </g>
  </g>
 </g>
 <g partID="854151650">
  <g transform="translate(110.845,75.0705)">
   <g transform="matrix(0,1,-1,0,0,0)">
    <g  id="copper0">
     <rect width="4.36286" x="2.42657" y="31.7696"  id="square" gorn="0.2.0.0" stroke="black" stroke-width="1.97314" fill="black" height="4.36286"/>
     <circle cy="33.951"  id="connector0pad" gorn="0.2.0.1" stroke="black" r="2.088" cx="4.58204" fill="black" stroke-width="2.16"/>
     <circle cy="33.951"  id="connector1pad" gorn="0.2.0.2" stroke="black" r="2.088" cx="11.7821" stroke-width="2.16" fill="black"/>
     <circle cy="33.951"  id="connector2pad" gorn="0.2.0.3" stroke="black" r="2.088" cx="18.9822" fill="black" stroke-width="2.16"/>
     <circle cy="33.951"  id="connector3pad" gorn="0.2.0.4" stroke="black" r="2.088" cx="26.1812" stroke-width="2.16" fill="black"/>
    </g>
   </g>
  </g>
 </g>
 <g partID="854151620">
  <g transform="translate(67.6446,75.0705)">
   <g transform="matrix(0,1,-1,0,0,0)">
    <g  id="copper0">
     <rect width="4.36286" x="2.42657" y="31.7696"  id="square" gorn="0.2.0.0" stroke="black" stroke-width="1.97314" fill="black" height="4.36286"/>
     <circle cy="33.951"  id="connector0pad" gorn="0.2.0.1" stroke="black" r="2.088" cx="4.58204" fill="black" stroke-width="2.16"/>
     <circle cy="33.951"  id="connector1pad" gorn="0.2.0.2" stroke="black" r="2.088" cx="11.7821" stroke-width="2.16" fill="black"/>
     <circle cy="33.951"  id="connector2pad" gorn="0.2.0.3" stroke="black" r="2.088" cx="18.9822" fill="black" stroke-width="2.16"/>
     <circle cy="33.951"  id="connector3pad" gorn="0.2.0.4" stroke="black" r="2.088" cx="26.1812" stroke-width="2.16" fill="black"/>
    </g>
   </g>
  </g>
 </g>
 <g partID="854332960">
  <g transform="translate(28.6536,211.412)">
   <g  id="copper0">
    <circle cy="5.04"  id="connector0pin" stroke="black" r="2.088" cx="5.04" fill="black" stroke-width="2.16"/>
    <circle cy="12.24"  id="connector1pin" stroke="black" r="2.088" cx="5.04" fill="black" stroke-width="2.16"/>
    <circle cy="19.44"  id="connector2pin" stroke="black" r="2.088" cx="5.04" fill="black" stroke-width="2.16"/>
    <circle cy="26.64"  id="connector3pin" stroke="black" r="2.088" cx="5.04" fill="black" stroke-width="2.16"/>
    <circle cy="33.84"  id="connector4pin" stroke="black" r="2.088" cx="5.04" fill="black" stroke-width="2.16"/>
    <circle cy="41.04"  id="connector5pin" stroke="black" r="2.088" cx="5.04" fill="black" stroke-width="2.16"/>
    <circle cy="48.24"  id="connector6pin" stroke="black" r="2.088" cx="5.04" fill="black" stroke-width="2.16"/>
   </g>
  </g>
 </g>
 <g partID="854332260">
  <g transform="translate(35.8536,211.412)">
   <g  id="copper0">
    <circle cy="5.04"  id="connector0pin" stroke="black" r="2.088" cx="5.04" fill="black" stroke-width="2.16"/>
    <circle cy="12.24"  id="connector1pin" stroke="black" r="2.088" cx="5.04" fill="black" stroke-width="2.16"/>
    <circle cy="19.44"  id="connector2pin" stroke="black" r="2.088" cx="5.04" fill="black" stroke-width="2.16"/>
    <circle cy="26.64"  id="connector3pin" stroke="black" r="2.088" cx="5.04" fill="black" stroke-width="2.16"/>
    <circle cy="33.84"  id="connector4pin" stroke="black" r="2.088" cx="5.04" fill="black" stroke-width="2.16"/>
    <circle cy="41.04"  id="connector5pin" stroke="black" r="2.088" cx="5.04" fill="black" stroke-width="2.16"/>
    <circle cy="48.24"  id="connector6pin" stroke="black" r="2.088" cx="5.04" fill="black" stroke-width="2.16"/>
   </g>
  </g>
 </g>
 <g partID="854331420">
  <g transform="translate(21.4536,211.412)">
   <g  id="copper0">
    <circle cy="5.04"  id="connector0pin" stroke="black" r="2.088" cx="5.04" fill="black" stroke-width="2.16"/>
    <circle cy="12.24"  id="connector1pin" stroke="black" r="2.088" cx="5.04" fill="black" stroke-width="2.16"/>
    <circle cy="19.44"  id="connector2pin" stroke="black" r="2.088" cx="5.04" fill="black" stroke-width="2.16"/>
    <circle cy="26.64"  id="connector3pin" stroke="black" r="2.088" cx="5.04" fill="black" stroke-width="2.16"/>
    <circle cy="33.84"  id="connector4pin" stroke="black" r="2.088" cx="5.04" fill="black" stroke-width="2.16"/>
    <circle cy="41.04"  id="connector5pin" stroke="black" r="2.088" cx="5.04" fill="black" stroke-width="2.16"/>
    <circle cy="48.24"  id="connector6pin" stroke="black" r="2.088" cx="5.04" fill="black" stroke-width="2.16"/>
   </g>
  </g>
 </g>
 <g partID="854322480">
  <g transform="translate(43.0536,211.412)">
   <g  id="copper0">
    <circle cy="5.04"  id="connector0pin" stroke="black" r="2.088" cx="5.04" fill="black" stroke-width="2.16"/>
    <circle cy="12.24"  id="connector1pin" stroke="black" r="2.088" cx="5.04" fill="black" stroke-width="2.16"/>
    <circle cy="19.44"  id="connector2pin" stroke="black" r="2.088" cx="5.04" fill="black" stroke-width="2.16"/>
    <circle cy="26.64"  id="connector3pin" stroke="black" r="2.088" cx="5.04" fill="black" stroke-width="2.16"/>
    <circle cy="33.84"  id="connector4pin" stroke="black" r="2.088" cx="5.04" fill="black" stroke-width="2.16"/>
   </g>
  </g>
 </g>
 <g partID="854300810">
  <g transform="translate(244.654,139.412)">
   <g  id="copper0">
    <circle cy="5.04"  id="connector0pin" stroke="black" r="2.088" cx="5.04" fill="black" stroke-width="2.16"/>
    <circle cy="12.24"  id="connector1pin" stroke="black" r="2.088" cx="5.04" fill="black" stroke-width="2.16"/>
    <circle cy="19.44"  id="connector2pin" stroke="black" r="2.088" cx="5.04" fill="black" stroke-width="2.16"/>
    <circle cy="26.64"  id="connector3pin" stroke="black" r="2.088" cx="5.04" fill="black" stroke-width="2.16"/>
   </g>
  </g>
 </g>
 <g partID="854177790">
  <g transform="translate(237.454,139.412)">
   <g  id="copper0">
    <circle cy="5.04"  id="connector0pin" stroke="black" r="2.088" cx="5.04" fill="black" stroke-width="2.16"/>
    <circle cy="12.24"  id="connector1pin" stroke="black" r="2.088" cx="5.04" fill="black" stroke-width="2.16"/>
    <circle cy="19.44"  id="connector2pin" stroke="black" r="2.088" cx="5.04" fill="black" stroke-width="2.16"/>
    <circle cy="26.64"  id="connector3pin" stroke="black" r="2.088" cx="5.04" fill="black" stroke-width="2.16"/>
   </g>
  </g>
 </g>
 <g partID="854177770">
  <g transform="translate(223.054,139.412)">
   <g  id="copper0">
    <circle cy="5.04"  id="connector0pin" stroke="black" r="2.088" cx="5.04" fill="black" stroke-width="2.16"/>
    <circle cy="12.24"  id="connector1pin" stroke="black" r="2.088" cx="5.04" fill="black" stroke-width="2.16"/>
    <circle cy="19.44"  id="connector2pin" stroke="black" r="2.088" cx="5.04" fill="black" stroke-width="2.16"/>
    <circle cy="26.64"  id="connector3pin" stroke="black" r="2.088" cx="5.04" fill="black" stroke-width="2.16"/>
   </g>
  </g>
 </g>
 <g partID="854177730">
  <g transform="translate(230.254,139.412)">
   <g  id="copper0">
    <circle cy="5.04"  id="connector0pin" stroke="black" r="2.088" cx="5.04" fill="black" stroke-width="2.16"/>
    <circle cy="12.24"  id="connector1pin" stroke="black" r="2.088" cx="5.04" fill="black" stroke-width="2.16"/>
    <circle cy="19.44"  id="connector2pin" stroke="black" r="2.088" cx="5.04" fill="black" stroke-width="2.16"/>
    <circle cy="26.64"  id="connector3pin" stroke="black" r="2.088" cx="5.04" fill="black" stroke-width="2.16"/>
   </g>
  </g>
 </g>
 <g partID="854177690">
  <g transform="translate(215.854,139.412)">
   <g  id="copper0">
    <circle cy="5.04"  id="connector0pin" stroke="black" r="2.088" cx="5.04" fill="black" stroke-width="2.16"/>
    <circle cy="12.24"  id="connector1pin" stroke="black" r="2.088" cx="5.04" fill="black" stroke-width="2.16"/>
    <circle cy="19.44"  id="connector2pin" stroke="black" r="2.088" cx="5.04" fill="black" stroke-width="2.16"/>
    <circle cy="26.64"  id="connector3pin" stroke="black" r="2.088" cx="5.04" fill="black" stroke-width="2.16"/>
   </g>
  </g>
 </g>
 <g partID="854177650">
  <g transform="translate(208.654,139.412)">
   <g  id="copper0">
    <circle cy="5.04"  id="connector0pin" stroke="black" r="2.088" cx="5.04" fill="black" stroke-width="2.16"/>
    <circle cy="12.24"  id="connector1pin" stroke="black" r="2.088" cx="5.04" fill="black" stroke-width="2.16"/>
    <circle cy="19.44"  id="connector2pin" stroke="black" r="2.088" cx="5.04" fill="black" stroke-width="2.16"/>
    <circle cy="26.64"  id="connector3pin" stroke="black" r="2.088" cx="5.04" fill="black" stroke-width="2.16"/>
   </g>
  </g>
 </g>
 <g partID="854177630">
  <g transform="translate(201.454,139.412)">
   <g  id="copper0">
    <circle cy="5.04"  id="connector0pin" stroke="black" r="2.088" cx="5.04" fill="black" stroke-width="2.16"/>
    <circle cy="12.24"  id="connector1pin" stroke="black" r="2.088" cx="5.04" fill="black" stroke-width="2.16"/>
    <circle cy="19.44"  id="connector2pin" stroke="black" r="2.088" cx="5.04" fill="black" stroke-width="2.16"/>
    <circle cy="26.64"  id="connector3pin" stroke="black" r="2.088" cx="5.04" fill="black" stroke-width="2.16"/>
   </g>
  </g>
 </g>
 <g partID="854175940">
  <g transform="translate(194.254,139.412)">
   <g  id="copper0">
    <circle cy="5.04"  id="connector0pin" stroke="black" r="2.088" cx="5.04" fill="black" stroke-width="2.16"/>
    <circle cy="12.24"  id="connector1pin" stroke="black" r="2.088" cx="5.04" fill="black" stroke-width="2.16"/>
    <circle cy="19.44"  id="connector2pin" stroke="black" r="2.088" cx="5.04" fill="black" stroke-width="2.16"/>
    <circle cy="26.64"  id="connector3pin" stroke="black" r="2.088" cx="5.04" fill="black" stroke-width="2.16"/>
   </g>
  </g>
 </g>
 <g partID="854171030">
  <g transform="translate(237.454,74.6118)">
   <g  id="copper0">
    <circle cy="5.04"  id="connector0pin" stroke="black" r="2.088" cx="5.04" fill="black" stroke-width="2.16"/>
    <circle cy="12.24"  id="connector1pin" stroke="black" r="2.088" cx="5.04" fill="black" stroke-width="2.16"/>
    <circle cy="19.44"  id="connector2pin" stroke="black" r="2.088" cx="5.04" fill="black" stroke-width="2.16"/>
    <circle cy="26.64"  id="connector3pin" stroke="black" r="2.088" cx="5.04" fill="black" stroke-width="2.16"/>
   </g>
  </g>
 </g>
 <g partID="854170970">
  <g transform="translate(244.654,74.6118)">
   <g  id="copper0">
    <circle cy="5.04"  id="connector0pin" stroke="black" r="2.088" cx="5.04" fill="black" stroke-width="2.16"/>
    <circle cy="12.24"  id="connector1pin" stroke="black" r="2.088" cx="5.04" fill="black" stroke-width="2.16"/>
    <circle cy="19.44"  id="connector2pin" stroke="black" r="2.088" cx="5.04" fill="black" stroke-width="2.16"/>
    <circle cy="26.64"  id="connector3pin" stroke="black" r="2.088" cx="5.04" fill="black" stroke-width="2.16"/>
   </g>
  </g>
 </g>
 <g partID="854170910">
  <g transform="translate(251.854,74.6118)">
   <g  id="copper0">
    <circle cy="5.04"  id="connector0pin" stroke="black" r="2.088" cx="5.04" fill="black" stroke-width="2.16"/>
    <circle cy="12.24"  id="connector1pin" stroke="black" r="2.088" cx="5.04" fill="black" stroke-width="2.16"/>
    <circle cy="19.44"  id="connector2pin" stroke="black" r="2.088" cx="5.04" fill="black" stroke-width="2.16"/>
    <circle cy="26.64"  id="connector3pin" stroke="black" r="2.088" cx="5.04" fill="black" stroke-width="2.16"/>
   </g>
  </g>
 </g>
 <g partID="854170800">
  <g transform="translate(194.254,74.6118)">
   <g  id="copper0">
    <circle cy="5.04"  id="connector0pin" stroke="black" r="2.088" cx="5.04" fill="black" stroke-width="2.16"/>
    <circle cy="12.24"  id="connector1pin" stroke="black" r="2.088" cx="5.04" fill="black" stroke-width="2.16"/>
    <circle cy="19.44"  id="connector2pin" stroke="black" r="2.088" cx="5.04" fill="black" stroke-width="2.16"/>
    <circle cy="26.64"  id="connector3pin" stroke="black" r="2.088" cx="5.04" fill="black" stroke-width="2.16"/>
   </g>
  </g>
 </g>
 <g partID="854170740">
  <g transform="translate(201.454,74.6118)">
   <g  id="copper0">
    <circle cy="5.04"  id="connector0pin" stroke="black" r="2.088" cx="5.04" fill="black" stroke-width="2.16"/>
    <circle cy="12.24"  id="connector1pin" stroke="black" r="2.088" cx="5.04" fill="black" stroke-width="2.16"/>
    <circle cy="19.44"  id="connector2pin" stroke="black" r="2.088" cx="5.04" fill="black" stroke-width="2.16"/>
    <circle cy="26.64"  id="connector3pin" stroke="black" r="2.088" cx="5.04" fill="black" stroke-width="2.16"/>
   </g>
  </g>
 </g>
 <g partID="854170700">
  <g transform="translate(208.654,74.6118)">
   <g  id="copper0">
    <circle cy="5.04"  id="connector0pin" stroke="black" r="2.088" cx="5.04" fill="black" stroke-width="2.16"/>
    <circle cy="12.24"  id="connector1pin" stroke="black" r="2.088" cx="5.04" fill="black" stroke-width="2.16"/>
    <circle cy="19.44"  id="connector2pin" stroke="black" r="2.088" cx="5.04" fill="black" stroke-width="2.16"/>
    <circle cy="26.64"  id="connector3pin" stroke="black" r="2.088" cx="5.04" fill="black" stroke-width="2.16"/>
   </g>
  </g>
 </g>
 <g partID="854170620">
  <g transform="translate(215.854,74.6118)">
   <g  id="copper0">
    <circle cy="5.04"  id="connector0pin" stroke="black" r="2.088" cx="5.04" fill="black" stroke-width="2.16"/>
    <circle cy="12.24"  id="connector1pin" stroke="black" r="2.088" cx="5.04" fill="black" stroke-width="2.16"/>
    <circle cy="19.44"  id="connector2pin" stroke="black" r="2.088" cx="5.04" fill="black" stroke-width="2.16"/>
    <circle cy="26.64"  id="connector3pin" stroke="black" r="2.088" cx="5.04" fill="black" stroke-width="2.16"/>
   </g>
  </g>
 </g>
 <g partID="854161440">
  <g transform="translate(28.6536,117.812)">
   <g  id="copper0">
    <circle cy="5.04"  id="connector0pin" stroke="black" r="2.088" cx="5.04" fill="black" stroke-width="2.16"/>
    <circle cy="12.24"  id="connector1pin" stroke="black" r="2.088" cx="5.04" fill="black" stroke-width="2.16"/>
    <circle cy="19.44"  id="connector2pin" stroke="black" r="2.088" cx="5.04" fill="black" stroke-width="2.16"/>
    <circle cy="26.64"  id="connector3pin" stroke="black" r="2.088" cx="5.04" fill="black" stroke-width="2.16"/>
    <circle cy="33.84"  id="connector4pin" stroke="black" r="2.088" cx="5.04" fill="black" stroke-width="2.16"/>
    <circle cy="41.04"  id="connector5pin" stroke="black" r="2.088" cx="5.04" fill="black" stroke-width="2.16"/>
   </g>
  </g>
 </g>
 <g partID="854157210">
  <g transform="translate(165.454,74.6118)">
   <g  id="copper0">
    <circle cy="5.04"  id="connector0pin" stroke="black" r="2.088" cx="5.04" fill="black" stroke-width="2.16"/>
    <circle cy="12.24"  id="connector1pin" stroke="black" r="2.088" cx="5.04" fill="black" stroke-width="2.16"/>
    <circle cy="19.44"  id="connector2pin" stroke="black" r="2.088" cx="5.04" fill="black" stroke-width="2.16"/>
    <circle cy="26.64"  id="connector3pin" stroke="black" r="2.088" cx="5.04" fill="black" stroke-width="2.16"/>
   </g>
  </g>
 </g>
 <g partID="854225430">
  <g transform="translate(124.276,134.234)">
   <g  id="copper0">
    <circle cy="3.01733"  id="connector0pin" stroke="black" r="0.992124" cx="3.01733" fill="black" stroke-width="1.57039"/>
   </g>
  </g>
 </g>
 <g partID="854225460">
  <g transform="translate(117.076,127.034)">
   <g  id="copper0">
    <circle cy="3.01733"  id="connector0pin" stroke="black" r="0.992124" cx="3.01733" fill="black" stroke-width="1.57039"/>
   </g>
  </g>
 </g>
 <g partID="854233430">
  <g transform="translate(131.476,141.434)">
   <g  id="copper0">
    <circle cy="3.01733"  id="connector0pin" stroke="black" r="0.992124" cx="3.01733" fill="black" stroke-width="1.57039"/>
   </g>
  </g>
 </g>
 <g partID="854233830">
  <g transform="translate(109.876,119.834)">
   <g  id="copper0">
    <circle cy="3.01733"  id="connector0pin" stroke="black" r="0.992124" cx="3.01733" fill="black" stroke-width="1.57039"/>
   </g>
  </g>
 </g>
 <g partID="854234710">
  <g transform="translate(52.2762,105.434)">
   <g  id="copper0">
    <circle cy="3.01733"  id="connector0pin" stroke="black" r="0.992124" cx="3.01733" fill="black" stroke-width="1.57039"/>
   </g>
  </g>
 </g>
 <g partID="854235470">
  <g transform="translate(174.676,155.834)">
   <g  id="copper0">
    <circle cy="3.01733"  id="connector0pin" stroke="black" r="0.992124" cx="3.01733" fill="black" stroke-width="1.57039"/>
   </g>
  </g>
 </g>
 <g partID="854248880">
  <g transform="translate(253.876,213.434)">
   <g  id="copper0">
    <circle cy="3.01733"  id="connector0pin" stroke="black" r="0.992124" cx="3.01733" fill="black" stroke-width="1.57039"/>
   </g>
  </g>
 </g>
 <g partID="854253810">
  <g transform="translate(189.076,127.034)">
   <g  id="copper0">
    <circle cy="3.01733"  id="connector0pin" stroke="black" r="0.992124" cx="3.01733" fill="black" stroke-width="1.57039"/>
   </g>
  </g>
 </g>
 <g partID="854270790">
  <g transform="translate(73.876,112.634)">
   <g  id="copper0">
    <circle cy="3.01733"  id="connector0pin" stroke="black" r="0.992124" cx="3.01733" fill="black" stroke-width="1.57039"/>
   </g>
  </g>
 </g>
 <g partID="854278650">
  <g transform="translate(73.876,148.634)">
   <g  id="copper0">
    <circle cy="3.01733"  id="connector0pin" stroke="black" r="0.992124" cx="3.01733" fill="black" stroke-width="1.57039"/>
   </g>
  </g>
 </g>
 <g partID="854278790">
  <g transform="translate(52.2762,148.634)">
   <g  id="copper0">
    <circle cy="3.01733"  id="connector0pin" stroke="black" r="0.992124" cx="3.01733" fill="black" stroke-width="1.57039"/>
   </g>
  </g>
 </g>
 <g partID="854281470">
  <g transform="translate(9.07624,163.034)">
   <g  id="copper0">
    <circle cy="3.01733"  id="connector0pin" stroke="black" r="0.992124" cx="3.01733" fill="black" stroke-width="1.57039"/>
   </g>
  </g>
 </g>
 <g partID="854300690">
  <g transform="translate(246.676,263.834)">
   <g  id="copper0">
    <circle cy="3.01733"  id="connector0pin" stroke="black" r="0.992124" cx="3.01733" fill="black" stroke-width="1.57039"/>
   </g>
  </g>
 </g>
 <g partID="854303230">
  <g transform="translate(262.506,169.818)">
   <g  id="copper0">
    <g  id="copper1">
     <circle cy="10.6336"  id="connector1pad" stroke="black" r="1.7008" cx="8.7876" fill="black" stroke-width="1.85384"/>
     <rect width="3.4016" x="7.0868" y="8.9328"  stroke="black" stroke-width="1.85384" fill="black" height="3.4016"/>
     <circle cy="3.5464"  id="connector0pad" stroke="black" r="1.7008" cx="8.7876" fill="black" stroke-width="1.85384"/>
    </g>
   </g>
  </g>
 </g>
 <g partID="854303690">
  <g transform="translate(262.506,234.618)">
   <g  id="copper0">
    <g  id="copper1">
     <circle cy="10.6336"  id="connector1pad" stroke="black" r="1.7008" cx="8.7876" fill="black" stroke-width="1.85384"/>
     <rect width="3.4016" x="7.0868" y="8.9328"  stroke="black" stroke-width="1.85384" fill="black" height="3.4016"/>
     <circle cy="3.5464"  id="connector0pad" stroke="black" r="1.7008" cx="8.7876" fill="black" stroke-width="1.85384"/>
    </g>
   </g>
  </g>
 </g>
 <g partID="854303350">
  <g transform="translate(262.506,213.018)">
   <g  id="copper0">
    <g  id="copper1">
     <circle cy="10.6336"  id="connector1pad" stroke="black" r="1.7008" cx="8.7876" fill="black" stroke-width="1.85384"/>
     <rect width="3.4016" x="7.0868" y="8.9328"  stroke="black" stroke-width="1.85384" fill="black" height="3.4016"/>
     <circle cy="3.5464"  id="connector0pad" stroke="black" r="1.7008" cx="8.7876" fill="black" stroke-width="1.85384"/>
    </g>
   </g>
  </g>
 </g>
 <g partID="854303330">
  <g transform="translate(262.506,191.418)">
   <g  id="copper0">
    <g  id="copper1">
     <circle cy="10.6336"  id="connector1pad" stroke="black" r="1.7008" cx="8.7876" fill="black" stroke-width="1.85384"/>
     <rect width="3.4016" x="7.0868" y="8.9328"  stroke="black" stroke-width="1.85384" fill="black" height="3.4016"/>
     <circle cy="3.5464"  id="connector0pad" stroke="black" r="1.7008" cx="8.7876" fill="black" stroke-width="1.85384"/>
    </g>
   </g>
  </g>
 </g>
 <g partID="854323170">
  <g transform="translate(275.398,147.152)">
   <g transform="matrix(5.55112e-17,-1,1,5.55112e-17,0,0)">
    <g  id="copper0">
     <g  id="copper1">
      <!-- <rect width="55" x="10" y="15.5" fill="none" height="55" stroke="rgb(255, 191, 0)" stroke-width="20" />  -->
      <circle cy="3.096"  id="connector0pin" stroke="black" r="1.98" cx="2.7" fill="black" stroke-width="2.16"/>
      <circle cy="3.096"  id="connector1pin" stroke="black" r="1.98" cx="31.5" fill="black" stroke-width="2.16"/>
     </g>
    </g>
   </g>
  </g>
 </g>
 <g partID="854324210">
  <g transform="translate(251.854,225.812)">
   <g  id="copper0">
    <circle cy="5.04"  id="connector0pin" stroke="black" r="2.088" cx="5.04" fill="black" stroke-width="2.16"/>
    <circle cy="12.24"  id="connector1pin" stroke="black" r="2.088" cx="5.04" fill="black" stroke-width="2.16"/>
    <circle cy="19.44"  id="connector2pin" stroke="black" r="2.088" cx="5.04" fill="black" stroke-width="2.16"/>
    <circle cy="26.64"  id="connector3pin" stroke="black" r="2.088" cx="5.04" fill="black" stroke-width="2.16"/>
   </g>
  </g>
 </g>
 <g partID="854328280">
  <g transform="translate(194.254,225.812)">
   <g  id="copper0">
    <circle cy="5.04"  id="connector0pin" stroke="black" r="2.088" cx="5.04" fill="black" stroke-width="2.16"/>
    <circle cy="12.24"  id="connector1pin" stroke="black" r="2.088" cx="5.04" fill="black" stroke-width="2.16"/>
    <circle cy="19.44"  id="connector2pin" stroke="black" r="2.088" cx="5.04" fill="black" stroke-width="2.16"/>
    <circle cy="26.64"  id="connector3pin" stroke="black" r="2.088" cx="5.04" fill="black" stroke-width="2.16"/>
    <circle cy="33.84"  id="connector4pin" stroke="black" r="2.088" cx="5.04" fill="black" stroke-width="2.16"/>
   </g>
  </g>
 </g>
 <g partID="854328180">
  <g transform="translate(187.054,225.812)">
   <g  id="copper0">
    <circle cy="5.04"  id="connector0pin" stroke="black" r="2.088" cx="5.04" fill="black" stroke-width="2.16"/>
    <circle cy="12.24"  id="connector1pin" stroke="black" r="2.088" cx="5.04" fill="black" stroke-width="2.16"/>
    <circle cy="19.44"  id="connector2pin" stroke="black" r="2.088" cx="5.04" fill="black" stroke-width="2.16"/>
    <circle cy="26.64"  id="connector3pin" stroke="black" r="2.088" cx="5.04" fill="black" stroke-width="2.16"/>
    <circle cy="33.84"  id="connector4pin" stroke="black" r="2.088" cx="5.04" fill="black" stroke-width="2.16"/>
   </g>
  </g>
 </g>
 <g partID="854328320">
  <g transform="translate(201.454,225.812)">
   <g  id="copper0">
    <circle cy="5.04"  id="connector0pin" stroke="black" r="2.088" cx="5.04" fill="black" stroke-width="2.16"/>
    <circle cy="12.24"  id="connector1pin" stroke="black" r="2.088" cx="5.04" fill="black" stroke-width="2.16"/>
    <circle cy="19.44"  id="connector2pin" stroke="black" r="2.088" cx="5.04" fill="black" stroke-width="2.16"/>
    <circle cy="26.64"  id="connector3pin" stroke="black" r="2.088" cx="5.04" fill="black" stroke-width="2.16"/>
    <circle cy="33.84"  id="connector4pin" stroke="black" r="2.088" cx="5.04" fill="black" stroke-width="2.16"/>
   </g>
  </g>
 </g>
 <g partID="854328340">
  <g transform="translate(208.654,225.812)">
   <g  id="copper0">
    <circle cy="5.04"  id="connector0pin" stroke="black" r="2.088" cx="5.04" fill="black" stroke-width="2.16"/>
    <circle cy="12.24"  id="connector1pin" stroke="black" r="2.088" cx="5.04" fill="black" stroke-width="2.16"/>
    <circle cy="19.44"  id="connector2pin" stroke="black" r="2.088" cx="5.04" fill="black" stroke-width="2.16"/>
    <circle cy="26.64"  id="connector3pin" stroke="black" r="2.088" cx="5.04" fill="black" stroke-width="2.16"/>
    <circle cy="33.84"  id="connector4pin" stroke="black" r="2.088" cx="5.04" fill="black" stroke-width="2.16"/>
   </g>
  </g>
 </g>
 <g partID="854328360">
  <g transform="translate(215.854,225.812)">
   <g  id="copper0">
    <circle cy="5.04"  id="connector0pin" stroke="black" r="2.088" cx="5.04" fill="black" stroke-width="2.16"/>
    <circle cy="12.24"  id="connector1pin" stroke="black" r="2.088" cx="5.04" fill="black" stroke-width="2.16"/>
    <circle cy="19.44"  id="connector2pin" stroke="black" r="2.088" cx="5.04" fill="black" stroke-width="2.16"/>
    <circle cy="26.64"  id="connector3pin" stroke="black" r="2.088" cx="5.04" fill="black" stroke-width="2.16"/>
    <circle cy="33.84"  id="connector4pin" stroke="black" r="2.088" cx="5.04" fill="black" stroke-width="2.16"/>
   </g>
  </g>
 </g>
 <g partID="854330100">
  <g transform="translate(9.60056,4.64248)">
   <g  id="copper0">
    <circle cy="10.2093"  id="connector3pad" stroke="black" connectorname="4" r="2.38039" cx="3.06" stroke-width="2.07921" fill="black"/>
    <circle cy="24.3825"  id="connector1pad" stroke="black" connectorname="2" r="2.38039" cx="3.06" stroke-width="2.07921" fill="black"/>
    <circle cy="24.3825"  id="connector0pad" stroke="black" connectorname="1" r="2.38039" cx="38.4931" stroke-width="2.07921" fill="black"/>
    <circle cy="10.2093"  id="connector2pad" stroke="black" connectorname="3" r="2.38039" cx="38.4931" stroke-width="2.07921" fill="black"/>
   </g>
  </g>
 </g>
 <g partID="854330130">
  <g transform="translate(9.60056,40.6425)">
   <g  id="copper0">
    <circle cy="10.2093"  id="connector3pad" stroke="black" connectorname="4" r="2.38039" cx="3.06" stroke-width="2.07921" fill="black"/>
    <circle cy="24.3825"  id="connector1pad" stroke="black" connectorname="2" r="2.38039" cx="3.06" stroke-width="2.07921" fill="black"/>
    <circle cy="24.3825"  id="connector0pad" stroke="black" connectorname="1" r="2.38039" cx="38.4931" stroke-width="2.07921" fill="black"/>
    <circle cy="10.2093"  id="connector2pad" stroke="black" connectorname="3" r="2.38039" cx="38.4931" stroke-width="2.07921" fill="black"/>
   </g>
  </g>
 </g>
 <g partID="854333890">
  <g transform="translate(50.2536,45.8118)">
   <g  id="copper0">
    <circle cy="5.04"  id="connector0pin" stroke="black" r="2.088" cx="5.04" fill="black" stroke-width="2.16"/>
    <circle cy="12.24"  id="connector1pin" stroke="black" r="2.088" cx="5.04" fill="black" stroke-width="2.16"/>
   </g>
  </g>
 </g>
 <g partID="854333840">
  <g transform="translate(50.2536,9.81176)">
   <g  id="copper0">
    <circle cy="5.04"  id="connector0pin" stroke="black" r="2.088" cx="5.04" fill="black" stroke-width="2.16"/>
    <circle cy="12.24"  id="connector1pin" stroke="black" r="2.088" cx="5.04" fill="black" stroke-width="2.16"/>
   </g>
  </g>
 </g>
 <g partID="854334300">
  <g transform="translate(276.334,24.2118)">
   <g transform="matrix(0,1,-1,0,0,0)">
    <g  id="copper0">
     <circle cy="5.04"  id="connector0pin" stroke="black" r="2.088" cx="5.04" fill="black" stroke-width="2.16"/>
     <circle cy="12.24"  id="connector1pin" stroke="black" r="2.088" cx="5.04" fill="black" stroke-width="2.16"/>
     <circle cy="19.44"  id="connector2pin" stroke="black" r="2.088" cx="5.04" fill="black" stroke-width="2.16"/>
    </g>
   </g>
  </g>
 </g>
 <g partID="854334240">
  <g transform="translate(276.334,17.0118)">
   <g transform="matrix(0,1,-1,0,0,0)">
    <g  id="copper0">
     <circle cy="5.04"  id="connector0pin" stroke="black" r="2.088" cx="5.04" fill="black" stroke-width="2.16"/>
     <circle cy="12.24"  id="connector1pin" stroke="black" r="2.088" cx="5.04" fill="black" stroke-width="2.16"/>
     <circle cy="19.44"  id="connector2pin" stroke="black" r="2.088" cx="5.04" fill="black" stroke-width="2.16"/>
    </g>
   </g>
  </g>
 </g>
 <g partID="854441550">
  <g transform="translate(259.054,31.4118)">
   <g  id="copper0">
    <circle cy="5.04"  id="connector0pin" stroke="black" r="2.088" cx="5.04" fill="black" stroke-width="2.16"/>
    <circle cy="12.24"  id="connector1pin" stroke="black" r="2.088" cx="5.04" fill="black" stroke-width="2.16"/>
   </g>
  </g>
 </g>
 <g partID="854334370">
  <g transform="translate(237.454,17.0118)">
   <g  id="copper0">
    <circle cy="5.04"  id="connector0pin" stroke="black" r="2.088" cx="5.04" fill="black" stroke-width="2.16"/>
    <circle cy="12.24"  id="connector1pin" stroke="black" r="2.088" cx="5.04" fill="black" stroke-width="2.16"/>
    <circle cy="19.44"  id="connector2pin" stroke="black" r="2.088" cx="5.04" fill="black" stroke-width="2.16"/>
   </g>
  </g>
 </g>
 <g partID="854335700">
  <g transform="translate(239.476,271.034)">
   <g  id="copper0">
    <circle cy="3.01733"  id="connector0pin" stroke="black" r="0.992124" cx="3.01733" fill="black" stroke-width="1.57039"/>
   </g>
  </g>
 </g>
 <g partID="854335730">
  <g transform="translate(131.476,271.034)">
   <g  id="copper0">
    <circle cy="3.01733"  id="connector0pin" stroke="black" r="0.992124" cx="3.01733" fill="black" stroke-width="1.57039"/>
   </g>
  </g>
 </g>
 <g partID="854346410">
  <g transform="translate(5.95812,267.916)">
   <g  id="copper0">
    <circle cy="6.13543"  id="nonconn0" stroke="black" r="4.53543" cx="6.13543" fill="black" stroke-width="0.72"/>
   </g>
  </g>
 </g>
 <g partID="854346870">
  <g transform="translate(265.158,267.916)">
   <g  id="copper0">
    <circle cy="6.13543"  id="nonconn0" stroke="black" r="4.53543" cx="6.13543" fill="black" stroke-width="0.72"/>
   </g>
  </g>
 </g>
 <g partID="854443380">
  <g transform="translate(265.158,59.1163)">
   <g  id="copper0">
    <circle cy="6.13543"  id="nonconn0" stroke="black" r="4.53543" cx="6.13543" fill="black" stroke-width="0.72"/>
   </g>
  </g>
 </g>
 <g partID="854350550">
  <g transform="translate(85.2456,18.3078)">
   <g  id="copper0">
    <circle cy="25.344"  id="connector0pad" stroke="black" connectorname="1" r="1.512" cx="6.048" stroke-width="1.44" fill="black"/>
    <path  stroke="black" d="m6.048,21.6a1.872,1.872,0,0,1,1.872,1.872l0,3.744a1.872,1.872,0,0,1,-1.872,1.872l0,0a1.872,1.872,0,0,1,-1.872,-1.872l0,-3.744a1.872,1.872,0,0,1,1.872,-1.872l0,0zM4.896,25.344a1.152,1.152,0,1,0,2.304,0,1.152,1.152,0,1,0,-2.304,0z" stroke-width="0.72" fill="black"/>
    <circle cy="25.344"  id="connector1pad" stroke="black" connectorname="2" r="1.512" cx="13.248" stroke-width="1.44" fill="black"/>
    <path  stroke="black" d="m13.248,21.6a1.872,1.872,0,0,1,1.872,1.872l0,3.744a1.872,1.872,0,0,1,-1.872,1.872l0,0a1.872,1.872,0,0,1,-1.872,-1.872l0,-3.744a1.872,1.872,0,0,1,1.872,-1.872l0,0zM12.096,25.344a1.152,1.152,0,1,0,2.304,0,1.152,1.152,0,1,0,-2.304,0z" stroke-width="0.72" fill="black"/>
    <circle cy="3.744"  id="connector2pad" stroke="black" connectorname="3" r="1.512" cx="13.248" stroke-width="1.44" fill="black"/>
    <path  stroke="black" d="m13.248,0a1.872,1.872,0,0,1,1.872,1.872l0,3.744a1.872,1.872,0,0,1,-1.872,1.872l0,0a1.872,1.872,0,0,1,-1.872,-1.872l0,-3.744a1.872,1.872,0,0,1,1.872,-1.872l0,0zM12.096,3.744a1.152,1.152,0,1,0,2.304,0,1.152,1.152,0,1,0,-2.304,0z" stroke-width="0.72" fill="black"/>
    <circle cy="3.744"  id="connector3pad" stroke="black" connectorname="4" r="1.512" cx="6.048" stroke-width="1.44" fill="black"/>
    <path  stroke="black" d="m6.048,0a1.872,1.872,0,0,1,1.872,1.872l0,3.744a1.872,1.872,0,0,1,-1.872,1.872l0,0a1.872,1.872,0,0,1,-1.872,-1.872l0,-3.744a1.872,1.872,0,0,1,1.872,-1.872l0,0zM4.896,3.744a1.152,1.152,0,1,0,2.304,0,1.152,1.152,0,1,0,-2.304,0z" stroke-width="0.72" fill="black"/>
   </g>
  </g>
 </g>
 <g partID="854350520">
  <g transform="translate(63.6456,18.3078)">
   <g  id="copper0">
    <circle cy="25.344"  id="connector0pad" stroke="black" connectorname="1" r="1.512" cx="6.048" stroke-width="1.44" fill="black"/>
    <path  stroke="black" d="m6.048,21.6a1.872,1.872,0,0,1,1.872,1.872l0,3.744a1.872,1.872,0,0,1,-1.872,1.872l0,0a1.872,1.872,0,0,1,-1.872,-1.872l0,-3.744a1.872,1.872,0,0,1,1.872,-1.872l0,0zM4.896,25.344a1.152,1.152,0,1,0,2.304,0,1.152,1.152,0,1,0,-2.304,0z" stroke-width="0.72" fill="black"/>
    <circle cy="25.344"  id="connector1pad" stroke="black" connectorname="2" r="1.512" cx="13.248" stroke-width="1.44" fill="black"/>
    <path  stroke="black" d="m13.248,21.6a1.872,1.872,0,0,1,1.872,1.872l0,3.744a1.872,1.872,0,0,1,-1.872,1.872l0,0a1.872,1.872,0,0,1,-1.872,-1.872l0,-3.744a1.872,1.872,0,0,1,1.872,-1.872l0,0zM12.096,25.344a1.152,1.152,0,1,0,2.304,0,1.152,1.152,0,1,0,-2.304,0z" stroke-width="0.72" fill="black"/>
    <circle cy="3.744"  id="connector2pad" stroke="black" connectorname="3" r="1.512" cx="13.248" stroke-width="1.44" fill="black"/>
    <path  stroke="black" d="m13.248,0a1.872,1.872,0,0,1,1.872,1.872l0,3.744a1.872,1.872,0,0,1,-1.872,1.872l0,0a1.872,1.872,0,0,1,-1.872,-1.872l0,-3.744a1.872,1.872,0,0,1,1.872,-1.872l0,0zM12.096,3.744a1.152,1.152,0,1,0,2.304,0,1.152,1.152,0,1,0,-2.304,0z" stroke-width="0.72" fill="black"/>
    <circle cy="3.744"  id="connector3pad" stroke="black" connectorname="4" r="1.512" cx="6.048" stroke-width="1.44" fill="black"/>
    <path  stroke="black" d="m6.048,0a1.872,1.872,0,0,1,1.872,1.872l0,3.744a1.872,1.872,0,0,1,-1.872,1.872l0,0a1.872,1.872,0,0,1,-1.872,-1.872l0,-3.744a1.872,1.872,0,0,1,1.872,-1.872l0,0zM4.896,3.744a1.152,1.152,0,1,0,2.304,0,1.152,1.152,0,1,0,-2.304,0z" stroke-width="0.72" fill="black"/>
   </g>
  </g>
 </g>
 <g partID="854350680">
  <g transform="translate(103.534,45.8118)">
   <g transform="matrix(0,1,-1,0,0,0)">
    <g  id="copper0">
     <circle cy="5.04"  id="connector0pin" stroke="black" r="2.088" cx="5.04" fill="black" stroke-width="2.16"/>
     <circle cy="12.24"  id="connector1pin" stroke="black" r="2.088" cx="5.04" fill="black" stroke-width="2.16"/>
    </g>
   </g>
  </g>
 </g>
 <g partID="854350660">
  <g transform="translate(103.534,9.81176)">
   <g transform="matrix(0,1,-1,0,0,0)">
    <g  id="copper0">
     <circle cy="5.04"  id="connector0pin" stroke="black" r="2.088" cx="5.04" fill="black" stroke-width="2.16"/>
     <circle cy="12.24"  id="connector1pin" stroke="black" r="2.088" cx="5.04" fill="black" stroke-width="2.16"/>
    </g>
   </g>
  </g>
 </g>
 <g partID="854350640">
  <g transform="translate(81.9336,45.8118)">
   <g transform="matrix(0,1,-1,0,0,0)">
    <g  id="copper0">
     <circle cy="5.04"  id="connector0pin" stroke="black" r="2.088" cx="5.04" fill="black" stroke-width="2.16"/>
     <circle cy="12.24"  id="connector1pin" stroke="black" r="2.088" cx="5.04" fill="black" stroke-width="2.16"/>
    </g>
   </g>
  </g>
 </g>
 <g partID="854350570">
  <g transform="translate(81.9336,9.81176)">
   <g transform="matrix(0,1,-1,0,0,0)">
    <g  id="copper0">
     <circle cy="5.04"  id="connector0pin" stroke="black" r="2.088" cx="5.04" fill="black" stroke-width="2.16"/>
     <circle cy="12.24"  id="connector1pin" stroke="black" r="2.088" cx="5.04" fill="black" stroke-width="2.16"/>
    </g>
   </g>
  </g>
 </g>
 <g partID="854351810">
  <g transform="translate(215.854,2.61176)">
   <g  id="copper0">
    <circle cy="5.04"  id="connector0pin" stroke="black" r="2.088" cx="5.04" fill="black" stroke-width="2.16"/>
    <circle cy="12.24"  id="connector1pin" stroke="black" r="2.088" cx="5.04" fill="black" stroke-width="2.16"/>
    <circle cy="19.44"  id="connector2pin" stroke="black" r="2.088" cx="5.04" fill="black" stroke-width="2.16"/>
    <circle cy="26.64"  id="connector3pin" stroke="black" r="2.088" cx="5.04" fill="black" stroke-width="2.16"/>
    <circle cy="33.84"  id="connector4pin" stroke="black" r="2.088" cx="5.04" fill="black" stroke-width="2.16"/>
    <circle cy="41.04"  id="connector5pin" stroke="black" r="2.088" cx="5.04" fill="black" stroke-width="2.16"/>
    <circle cy="48.24"  id="connector6pin" stroke="black" r="2.088" cx="5.04" fill="black" stroke-width="2.16"/>
    <circle cy="55.44"  id="connector7pin" stroke="black" r="2.088" cx="5.04" fill="black" stroke-width="2.16"/>
   </g>
  </g>
 </g>
 <g partID="854351790">
  <g transform="translate(208.654,2.61176)">
   <g  id="copper0">
    <circle cy="5.04"  id="connector0pin" stroke="black" r="2.088" cx="5.04" fill="black" stroke-width="2.16"/>
    <circle cy="12.24"  id="connector1pin" stroke="black" r="2.088" cx="5.04" fill="black" stroke-width="2.16"/>
    <circle cy="19.44"  id="connector2pin" stroke="black" r="2.088" cx="5.04" fill="black" stroke-width="2.16"/>
    <circle cy="26.64"  id="connector3pin" stroke="black" r="2.088" cx="5.04" fill="black" stroke-width="2.16"/>
    <circle cy="33.84"  id="connector4pin" stroke="black" r="2.088" cx="5.04" fill="black" stroke-width="2.16"/>
    <circle cy="41.04"  id="connector5pin" stroke="black" r="2.088" cx="5.04" fill="black" stroke-width="2.16"/>
    <circle cy="48.24"  id="connector6pin" stroke="black" r="2.088" cx="5.04" fill="black" stroke-width="2.16"/>
    <circle cy="55.44"  id="connector7pin" stroke="black" r="2.088" cx="5.04" fill="black" stroke-width="2.16"/>
   </g>
  </g>
 </g>
 <g partID="854351770">
  <g transform="translate(201.454,2.61176)">
   <g  id="copper0">
    <circle cy="5.04"  id="connector0pin" stroke="black" r="2.088" cx="5.04" fill="black" stroke-width="2.16"/>
    <circle cy="12.24"  id="connector1pin" stroke="black" r="2.088" cx="5.04" fill="black" stroke-width="2.16"/>
    <circle cy="19.44"  id="connector2pin" stroke="black" r="2.088" cx="5.04" fill="black" stroke-width="2.16"/>
    <circle cy="26.64"  id="connector3pin" stroke="black" r="2.088" cx="5.04" fill="black" stroke-width="2.16"/>
    <circle cy="33.84"  id="connector4pin" stroke="black" r="2.088" cx="5.04" fill="black" stroke-width="2.16"/>
    <circle cy="41.04"  id="connector5pin" stroke="black" r="2.088" cx="5.04" fill="black" stroke-width="2.16"/>
    <circle cy="48.24"  id="connector6pin" stroke="black" r="2.088" cx="5.04" fill="black" stroke-width="2.16"/>
    <circle cy="55.44"  id="connector7pin" stroke="black" r="2.088" cx="5.04" fill="black" stroke-width="2.16"/>
   </g>
  </g>
 </g>
 <g partID="854351750">
  <g transform="translate(194.254,2.61176)">
   <g  id="copper0">
    <circle cy="5.04"  id="connector0pin" stroke="black" r="2.088" cx="5.04" fill="black" stroke-width="2.16"/>
    <circle cy="12.24"  id="connector1pin" stroke="black" r="2.088" cx="5.04" fill="black" stroke-width="2.16"/>
    <circle cy="19.44"  id="connector2pin" stroke="black" r="2.088" cx="5.04" fill="black" stroke-width="2.16"/>
    <circle cy="26.64"  id="connector3pin" stroke="black" r="2.088" cx="5.04" fill="black" stroke-width="2.16"/>
    <circle cy="33.84"  id="connector4pin" stroke="black" r="2.088" cx="5.04" fill="black" stroke-width="2.16"/>
    <circle cy="41.04"  id="connector5pin" stroke="black" r="2.088" cx="5.04" fill="black" stroke-width="2.16"/>
    <circle cy="48.24"  id="connector6pin" stroke="black" r="2.088" cx="5.04" fill="black" stroke-width="2.16"/>
    <circle cy="55.44"  id="connector7pin" stroke="black" r="2.088" cx="5.04" fill="black" stroke-width="2.16"/>
   </g>
  </g>
 </g>
 <g partID="854351730">
  <g transform="translate(187.054,2.61176)">
   <g  id="copper0">
    <circle cy="5.04"  id="connector0pin" stroke="black" r="2.088" cx="5.04" fill="black" stroke-width="2.16"/>
    <circle cy="12.24"  id="connector1pin" stroke="black" r="2.088" cx="5.04" fill="black" stroke-width="2.16"/>
    <circle cy="19.44"  id="connector2pin" stroke="black" r="2.088" cx="5.04" fill="black" stroke-width="2.16"/>
    <circle cy="26.64"  id="connector3pin" stroke="black" r="2.088" cx="5.04" fill="black" stroke-width="2.16"/>
    <circle cy="33.84"  id="connector4pin" stroke="black" r="2.088" cx="5.04" fill="black" stroke-width="2.16"/>
    <circle cy="41.04"  id="connector5pin" stroke="black" r="2.088" cx="5.04" fill="black" stroke-width="2.16"/>
    <circle cy="48.24"  id="connector6pin" stroke="black" r="2.088" cx="5.04" fill="black" stroke-width="2.16"/>
    <circle cy="55.44"  id="connector7pin" stroke="black" r="2.088" cx="5.04" fill="black" stroke-width="2.16"/>
   </g>
  </g>
 </g>
 <g partID="854351710">
  <g transform="translate(179.854,2.61176)">
   <g  id="copper0">
    <circle cy="5.04"  id="connector0pin" stroke="black" r="2.088" cx="5.04" fill="black" stroke-width="2.16"/>
    <circle cy="12.24"  id="connector1pin" stroke="black" r="2.088" cx="5.04" fill="black" stroke-width="2.16"/>
    <circle cy="19.44"  id="connector2pin" stroke="black" r="2.088" cx="5.04" fill="black" stroke-width="2.16"/>
    <circle cy="26.64"  id="connector3pin" stroke="black" r="2.088" cx="5.04" fill="black" stroke-width="2.16"/>
    <circle cy="33.84"  id="connector4pin" stroke="black" r="2.088" cx="5.04" fill="black" stroke-width="2.16"/>
    <circle cy="41.04"  id="connector5pin" stroke="black" r="2.088" cx="5.04" fill="black" stroke-width="2.16"/>
    <circle cy="48.24"  id="connector6pin" stroke="black" r="2.088" cx="5.04" fill="black" stroke-width="2.16"/>
    <circle cy="55.44"  id="connector7pin" stroke="black" r="2.088" cx="5.04" fill="black" stroke-width="2.16"/>
   </g>
  </g>
 </g>
 <g partID="854351670">
  <g transform="translate(172.654,2.61176)">
   <g  id="copper0">
    <circle cy="5.04"  id="connector0pin" stroke="black" r="2.088" cx="5.04" fill="black" stroke-width="2.16"/>
    <circle cy="12.24"  id="connector1pin" stroke="black" r="2.088" cx="5.04" fill="black" stroke-width="2.16"/>
    <circle cy="19.44"  id="connector2pin" stroke="black" r="2.088" cx="5.04" fill="black" stroke-width="2.16"/>
    <circle cy="26.64"  id="connector3pin" stroke="black" r="2.088" cx="5.04" fill="black" stroke-width="2.16"/>
    <circle cy="33.84"  id="connector4pin" stroke="black" r="2.088" cx="5.04" fill="black" stroke-width="2.16"/>
    <circle cy="41.04"  id="connector5pin" stroke="black" r="2.088" cx="5.04" fill="black" stroke-width="2.16"/>
    <circle cy="48.24"  id="connector6pin" stroke="black" r="2.088" cx="5.04" fill="black" stroke-width="2.16"/>
    <circle cy="55.44"  id="connector7pin" stroke="black" r="2.088" cx="5.04" fill="black" stroke-width="2.16"/>
   </g>
  </g>
 </g>
 <g partID="854351650">
  <g transform="translate(165.454,2.61176)">
   <g  id="copper0">
    <circle cy="5.04"  id="connector0pin" stroke="black" r="2.088" cx="5.04" fill="black" stroke-width="2.16"/>
    <circle cy="12.24"  id="connector1pin" stroke="black" r="2.088" cx="5.04" fill="black" stroke-width="2.16"/>
    <circle cy="19.44"  id="connector2pin" stroke="black" r="2.088" cx="5.04" fill="black" stroke-width="2.16"/>
    <circle cy="26.64"  id="connector3pin" stroke="black" r="2.088" cx="5.04" fill="black" stroke-width="2.16"/>
    <circle cy="33.84"  id="connector4pin" stroke="black" r="2.088" cx="5.04" fill="black" stroke-width="2.16"/>
    <circle cy="41.04"  id="connector5pin" stroke="black" r="2.088" cx="5.04" fill="black" stroke-width="2.16"/>
    <circle cy="48.24"  id="connector6pin" stroke="black" r="2.088" cx="5.04" fill="black" stroke-width="2.16"/>
    <circle cy="55.44"  id="connector7pin" stroke="black" r="2.088" cx="5.04" fill="black" stroke-width="2.16"/>
   </g>
  </g>
 </g>
 <g partID="854351630">
  <g transform="translate(158.254,2.61176)">
   <g  id="copper0">
    <circle cy="5.04"  id="connector0pin" stroke="black" r="2.088" cx="5.04" fill="black" stroke-width="2.16"/>
    <circle cy="12.24"  id="connector1pin" stroke="black" r="2.088" cx="5.04" fill="black" stroke-width="2.16"/>
    <circle cy="19.44"  id="connector2pin" stroke="black" r="2.088" cx="5.04" fill="black" stroke-width="2.16"/>
    <circle cy="26.64"  id="connector3pin" stroke="black" r="2.088" cx="5.04" fill="black" stroke-width="2.16"/>
    <circle cy="33.84"  id="connector4pin" stroke="black" r="2.088" cx="5.04" fill="black" stroke-width="2.16"/>
    <circle cy="41.04"  id="connector5pin" stroke="black" r="2.088" cx="5.04" fill="black" stroke-width="2.16"/>
    <circle cy="48.24"  id="connector6pin" stroke="black" r="2.088" cx="5.04" fill="black" stroke-width="2.16"/>
    <circle cy="55.44"  id="connector7pin" stroke="black" r="2.088" cx="5.04" fill="black" stroke-width="2.16"/>
   </g>
  </g>
 </g>
 <g partID="854351610">
  <g transform="translate(151.054,2.61176)">
   <g  id="copper0">
    <circle cy="5.04"  id="connector0pin" stroke="black" r="2.088" cx="5.04" fill="black" stroke-width="2.16"/>
    <circle cy="12.24"  id="connector1pin" stroke="black" r="2.088" cx="5.04" fill="black" stroke-width="2.16"/>
    <circle cy="19.44"  id="connector2pin" stroke="black" r="2.088" cx="5.04" fill="black" stroke-width="2.16"/>
    <circle cy="26.64"  id="connector3pin" stroke="black" r="2.088" cx="5.04" fill="black" stroke-width="2.16"/>
    <circle cy="33.84"  id="connector4pin" stroke="black" r="2.088" cx="5.04" fill="black" stroke-width="2.16"/>
    <circle cy="41.04"  id="connector5pin" stroke="black" r="2.088" cx="5.04" fill="black" stroke-width="2.16"/>
    <circle cy="48.24"  id="connector6pin" stroke="black" r="2.088" cx="5.04" fill="black" stroke-width="2.16"/>
    <circle cy="55.44"  id="connector7pin" stroke="black" r="2.088" cx="5.04" fill="black" stroke-width="2.16"/>
   </g>
  </g>
 </g>
 <g partID="854351590">
  <g transform="translate(143.854,2.61176)">
   <g  id="copper0">
    <circle cy="5.04"  id="connector0pin" stroke="black" r="2.088" cx="5.04" fill="black" stroke-width="2.16"/>
    <circle cy="12.24"  id="connector1pin" stroke="black" r="2.088" cx="5.04" fill="black" stroke-width="2.16"/>
    <circle cy="19.44"  id="connector2pin" stroke="black" r="2.088" cx="5.04" fill="black" stroke-width="2.16"/>
    <circle cy="26.64"  id="connector3pin" stroke="black" r="2.088" cx="5.04" fill="black" stroke-width="2.16"/>
    <circle cy="33.84"  id="connector4pin" stroke="black" r="2.088" cx="5.04" fill="black" stroke-width="2.16"/>
    <circle cy="41.04"  id="connector5pin" stroke="black" r="2.088" cx="5.04" fill="black" stroke-width="2.16"/>
    <circle cy="48.24"  id="connector6pin" stroke="black" r="2.088" cx="5.04" fill="black" stroke-width="2.16"/>
    <circle cy="55.44"  id="connector7pin" stroke="black" r="2.088" cx="5.04" fill="black" stroke-width="2.16"/>
   </g>
  </g>
 </g>
 <g partID="854351470">
  <g transform="translate(136.654,2.61176)">
   <g  id="copper0">
    <circle cy="5.04"  id="connector0pin" stroke="black" r="2.088" cx="5.04" fill="black" stroke-width="2.16"/>
    <circle cy="12.24"  id="connector1pin" stroke="black" r="2.088" cx="5.04" fill="black" stroke-width="2.16"/>
    <circle cy="19.44"  id="connector2pin" stroke="black" r="2.088" cx="5.04" fill="black" stroke-width="2.16"/>
    <circle cy="26.64"  id="connector3pin" stroke="black" r="2.088" cx="5.04" fill="black" stroke-width="2.16"/>
    <circle cy="33.84"  id="connector4pin" stroke="black" r="2.088" cx="5.04" fill="black" stroke-width="2.16"/>
    <circle cy="41.04"  id="connector5pin" stroke="black" r="2.088" cx="5.04" fill="black" stroke-width="2.16"/>
    <circle cy="48.24"  id="connector6pin" stroke="black" r="2.088" cx="5.04" fill="black" stroke-width="2.16"/>
    <circle cy="55.44"  id="connector7pin" stroke="black" r="2.088" cx="5.04" fill="black" stroke-width="2.16"/>
   </g>
  </g>
 </g>
 <g partID="854351450">
  <g transform="translate(129.454,2.61176)">
   <g  id="copper0">
    <circle cy="5.04"  id="connector0pin" stroke="black" r="2.088" cx="5.04" fill="black" stroke-width="2.16"/>
    <circle cy="12.24"  id="connector1pin" stroke="black" r="2.088" cx="5.04" fill="black" stroke-width="2.16"/>
    <circle cy="19.44"  id="connector2pin" stroke="black" r="2.088" cx="5.04" fill="black" stroke-width="2.16"/>
    <circle cy="26.64"  id="connector3pin" stroke="black" r="2.088" cx="5.04" fill="black" stroke-width="2.16"/>
    <circle cy="33.84"  id="connector4pin" stroke="black" r="2.088" cx="5.04" fill="black" stroke-width="2.16"/>
    <circle cy="41.04"  id="connector5pin" stroke="black" r="2.088" cx="5.04" fill="black" stroke-width="2.16"/>
    <circle cy="48.24"  id="connector6pin" stroke="black" r="2.088" cx="5.04" fill="black" stroke-width="2.16"/>
    <circle cy="55.44"  id="connector7pin" stroke="black" r="2.088" cx="5.04" fill="black" stroke-width="2.16"/>
   </g>
  </g>
 </g>
 <g partID="854351430">
  <g transform="translate(122.254,2.61176)">
   <g  id="copper0">
    <circle cy="5.04"  id="connector0pin" stroke="black" r="2.088" cx="5.04" fill="black" stroke-width="2.16"/>
    <circle cy="12.24"  id="connector1pin" stroke="black" r="2.088" cx="5.04" fill="black" stroke-width="2.16"/>
    <circle cy="19.44"  id="connector2pin" stroke="black" r="2.088" cx="5.04" fill="black" stroke-width="2.16"/>
    <circle cy="26.64"  id="connector3pin" stroke="black" r="2.088" cx="5.04" fill="black" stroke-width="2.16"/>
    <circle cy="33.84"  id="connector4pin" stroke="black" r="2.088" cx="5.04" fill="black" stroke-width="2.16"/>
    <circle cy="41.04"  id="connector5pin" stroke="black" r="2.088" cx="5.04" fill="black" stroke-width="2.16"/>
    <circle cy="48.24"  id="connector6pin" stroke="black" r="2.088" cx="5.04" fill="black" stroke-width="2.16"/>
    <circle cy="55.44"  id="connector7pin" stroke="black" r="2.088" cx="5.04" fill="black" stroke-width="2.16"/>
   </g>
  </g>
 </g>
 <g partID="854351390">
  <g transform="translate(115.054,2.61176)">
   <g  id="copper0">
    <circle cy="5.04"  id="connector0pin" stroke="black" r="2.088" cx="5.04" fill="black" stroke-width="2.16"/>
    <circle cy="12.24"  id="connector1pin" stroke="black" r="2.088" cx="5.04" fill="black" stroke-width="2.16"/>
    <circle cy="19.44"  id="connector2pin" stroke="black" r="2.088" cx="5.04" fill="black" stroke-width="2.16"/>
    <circle cy="26.64"  id="connector3pin" stroke="black" r="2.088" cx="5.04" fill="black" stroke-width="2.16"/>
    <circle cy="33.84"  id="connector4pin" stroke="black" r="2.088" cx="5.04" fill="black" stroke-width="2.16"/>
    <circle cy="41.04"  id="connector5pin" stroke="black" r="2.088" cx="5.04" fill="black" stroke-width="2.16"/>
    <circle cy="48.24"  id="connector6pin" stroke="black" r="2.088" cx="5.04" fill="black" stroke-width="2.16"/>
    <circle cy="55.44"  id="connector7pin" stroke="black" r="2.088" cx="5.04" fill="black" stroke-width="2.16"/>
   </g>
  </g>
 </g>
 <g partID="854355350">
  <g transform="translate(230.254,45.8118)">
   <g  id="copper0">
    <circle cy="5.04"  id="connector0pin" stroke="black" r="2.088" cx="5.04" fill="black" stroke-width="2.16"/>
    <circle cy="12.24"  id="connector1pin" stroke="black" r="2.088" cx="5.04" fill="black" stroke-width="2.16"/>
    <circle cy="19.44"  id="connector2pin" stroke="black" r="2.088" cx="5.04" fill="black" stroke-width="2.16"/>
   </g>
  </g>
 </g>
 <g partID="854366380">
  <g transform="translate(77.9581,59.1163)">
   <g  id="copper0">
    <circle cy="6.13543"  id="nonconn0" stroke="black" r="4.53543" cx="6.13543" fill="black" stroke-width="0.72"/>
   </g>
  </g>
 </g>
</svg>
